<?xml version='1.0' encoding='UTF-8' ?>
<svg xmlns='http://www.w3.org/2000/svg' xmlns:xlink='http://www.w3.org/1999/xlink' viewBox='0 0 720.00 720.00'>
<defs>
  <style type='text/css'><![CDATA[
    line, polyline, polygon, path, rect, circle {
      fill: none;
      stroke: #000000;
      stroke-linecap: round;
      stroke-linejoin: round;
      stroke-miterlimit: 10.00;
    }
  ]]></style>
</defs>
<rect width='100%' height='100%' style='stroke: none; fill: #FFFFFF;'/>
<defs>
  <clipPath id='cpMC4wMHw3MjAuMDB8NjU2LjA2fDYzLjk0'>
    <rect x='0.00' y='63.94' width='720.00' height='592.13' />
  </clipPath>
</defs>
<rect x='0.00' y='63.94' width='720.00' height='592.13' style='stroke-width: 1.07; stroke: #FFFFFF; fill: #FFFFFF;' clip-path='url(#cpMC4wMHw3MjAuMDB8NjU2LjA2fDYzLjk0)' />
<defs>
  <clipPath id='cpMC4wMHw3MjAuMDB8NzIwLjAwfDAuMDA='>
    <rect x='0.00' y='0.00' width='720.00' height='720.00' />
  </clipPath>
</defs>
<defs>
  <clipPath id='cpMjMuMDB8NTUyLjE5fDYzMS4yNHwxMDIuMDU='>
    <rect x='23.00' y='102.05' width='529.19' height='529.19' />
  </clipPath>
</defs>
<rect x='23.00' y='102.05' width='529.19' height='529.19' style='stroke-width: 1.07; stroke: none; fill: #EBEBEB;' clip-path='url(#cpMjMuMDB8NTUyLjE5fDYzMS4yNHwxMDIuMDU=)' />
<polyline points='287.60,366.64 287.60,128.51 ' style='stroke-width: 1.07; stroke: #FFFFFF; stroke-linecap: butt;' clip-path='url(#cpMjMuMDB8NTUyLjE5fDYzMS4yNHwxMDIuMDU=)' />
<polyline points='287.60,366.64 523.08,331.23 ' style='stroke-width: 1.07; stroke: #FFFFFF; stroke-linecap: butt;' clip-path='url(#cpMjMuMDB8NTUyLjE5fDYzMS4yNHwxMDIuMDU=)' />
<polyline points='287.60,366.64 357.63,594.24 ' style='stroke-width: 1.07; stroke: #FFFFFF; stroke-linecap: butt;' clip-path='url(#cpMjMuMDB8NTUyLjE5fDYzMS4yNHwxMDIuMDU=)' />
<polyline points='287.60,366.64 72.94,469.75 ' style='stroke-width: 1.07; stroke: #FFFFFF; stroke-linecap: butt;' clip-path='url(#cpMjMuMDB8NTUyLjE5fDYzMS4yNHwxMDIuMDU=)' />
<polyline points='287.60,366.64 153.72,169.70 ' style='stroke-width: 1.07; stroke: #FFFFFF; stroke-linecap: butt;' clip-path='url(#cpMjMuMDB8NTUyLjE5fDYzMS4yNHwxMDIuMDU=)' />
<polyline points='287.60,366.64 287.60,128.51 ' style='stroke-width: 0.53; stroke: #FFFFFF; stroke-linecap: butt;' clip-path='url(#cpMjMuMDB8NTUyLjE5fDYzMS4yNHwxMDIuMDU=)' />
<polyline points='287.60,366.64 442.96,186.17 ' style='stroke-width: 0.53; stroke: #FFFFFF; stroke-linecap: butt;' clip-path='url(#cpMjMuMDB8NTUyLjE5fDYzMS4yNHwxMDIuMDU=)' />
<polyline points='287.60,366.64 523.08,331.23 ' style='stroke-width: 0.53; stroke: #FFFFFF; stroke-linecap: butt;' clip-path='url(#cpMjMuMDB8NTUyLjE5fDYzMS4yNHwxMDIuMDU=)' />
<polyline points='287.60,366.64 489.17,493.44 ' style='stroke-width: 0.53; stroke: #FFFFFF; stroke-linecap: butt;' clip-path='url(#cpMjMuMDB8NTUyLjE5fDYzMS4yNHwxMDIuMDU=)' />
<polyline points='287.60,366.64 357.63,594.24 ' style='stroke-width: 0.53; stroke: #FFFFFF; stroke-linecap: butt;' clip-path='url(#cpMjMuMDB8NTUyLjE5fDYzMS4yNHwxMDIuMDU=)' />
<polyline points='287.60,366.64 192.18,584.83 ' style='stroke-width: 0.53; stroke: #FFFFFF; stroke-linecap: butt;' clip-path='url(#cpMjMuMDB8NTUyLjE5fDYzMS4yNHwxMDIuMDU=)' />
<polyline points='287.60,366.64 72.94,469.75 ' style='stroke-width: 0.53; stroke: #FFFFFF; stroke-linecap: butt;' clip-path='url(#cpMjMuMDB8NTUyLjE5fDYzMS4yNHwxMDIuMDU=)' />
<polyline points='287.60,366.64 57.65,304.73 ' style='stroke-width: 0.53; stroke: #FFFFFF; stroke-linecap: butt;' clip-path='url(#cpMjMuMDB8NTUyLjE5fDYzMS4yNHwxMDIuMDU=)' />
<polyline points='287.60,366.64 153.72,169.70 ' style='stroke-width: 0.53; stroke: #FFFFFF; stroke-linecap: butt;' clip-path='url(#cpMjMuMDB8NTUyLjE5fDYzMS4yNHwxMDIuMDU=)' />
<polyline points='287.60,260.80 294.31,261.02 300.99,261.65 307.63,262.72 314.18,264.20 320.62,266.09 326.93,268.38 333.08,271.08 339.05,274.15 344.82,277.60 350.35,281.41 355.63,285.56 360.63,290.04 365.34,294.83 369.74,299.90 373.81,305.25 377.53,310.84 380.89,316.66 383.87,322.67 386.46,328.87 388.66,335.22 390.45,341.69 391.83,348.26 392.78,354.91 393.31,361.61 393.42,368.32 393.10,375.03 392.36,381.70 391.19,388.32 389.61,394.84 387.61,401.26 385.22,407.53 382.43,413.64 379.25,419.56 375.71,425.27 371.82,430.74 367.58,435.95 363.03,440.88 358.17,445.52 353.02,449.84 347.61,453.82 341.96,457.45 336.09,460.71 330.03,463.60 323.79,466.10 317.41,468.19 310.91,469.88 304.32,471.15 297.66,472.00 290.95,472.43 284.24,472.43 277.54,472.00 270.87,471.15 264.28,469.88 257.78,468.19 251.40,466.10 245.16,463.60 239.10,460.71 233.23,457.45 227.58,453.82 222.17,449.84 217.03,445.52 212.17,440.88 207.61,435.95 203.37,430.74 199.48,425.27 195.94,419.56 192.77,413.64 189.98,407.53 187.58,401.26 185.58,394.84 184.00,388.32 182.84,381.70 182.09,375.03 181.77,368.32 181.88,361.61 182.41,354.91 183.37,348.26 184.74,341.69 186.53,335.22 188.73,328.87 191.32,322.67 194.30,316.66 197.66,310.84 201.38,305.25 205.45,299.90 209.85,294.83 214.56,290.04 219.56,285.56 224.84,281.41 230.38,277.60 236.14,274.15 242.11,271.08 248.26,268.38 254.57,266.09 261.01,264.20 267.57,262.72 274.20,261.65 280.88,261.02 287.60,260.80 ' style='stroke-width: 1.07; stroke: #FFFFFF; stroke-linecap: butt;' clip-path='url(#cpMjMuMDB8NTUyLjE5fDYzMS4yNHwxMDIuMDU=)' />
<polyline points='287.60,128.51 302.70,128.99 317.74,130.42 332.66,132.81 347.40,136.14 361.90,140.40 376.10,145.56 389.95,151.62 403.38,158.55 416.34,166.31 428.79,174.88 440.67,184.22 451.93,194.29 462.53,205.06 472.42,216.48 481.58,228.51 489.95,241.09 497.50,254.18 504.21,267.72 510.05,281.65 514.99,295.93 519.02,310.50 522.11,325.29 524.26,340.25 525.46,355.31 525.70,370.42 524.98,385.51 523.31,400.53 520.68,415.41 517.12,430.10 512.63,444.53 507.24,458.64 500.96,472.39 493.83,485.71 485.86,498.55 477.09,510.86 467.57,522.59 457.31,533.69 446.38,544.11 434.80,553.83 422.63,562.79 409.92,570.96 396.72,578.30 383.07,584.80 369.04,590.41 354.69,595.13 340.06,598.93 325.22,601.79 310.23,603.70 295.15,604.66 280.04,604.66 264.96,603.70 249.97,601.79 235.13,598.93 220.51,595.13 206.15,590.41 192.12,584.80 178.48,578.30 165.27,570.96 152.56,562.79 140.39,553.83 128.81,544.11 117.88,533.69 107.63,522.59 98.10,510.86 89.33,498.55 81.36,485.71 74.23,472.39 67.95,458.64 62.56,444.53 58.07,430.10 54.51,415.41 51.88,400.53 50.21,385.51 49.49,370.42 49.73,355.31 50.93,340.25 53.08,325.29 56.17,310.50 60.20,295.93 65.14,281.65 70.98,267.72 77.69,254.18 85.25,241.09 93.62,228.51 102.77,216.48 112.66,205.06 123.26,194.29 134.53,184.22 146.40,174.88 158.85,166.31 171.82,158.55 185.25,151.62 199.09,145.56 213.29,140.40 227.79,136.14 242.53,132.81 257.45,130.42 272.49,128.99 287.60,128.51 ' style='stroke-width: 1.07; stroke: #FFFFFF; stroke-linecap: butt;' clip-path='url(#cpMjMuMDB8NTUyLjE5fDYzMS4yNHwxMDIuMDU=)' />
<polygon points='287.60,366.64 280.31,366.28 273.02,365.92 265.73,365.55 258.44,365.19 251.15,364.83 243.86,364.46 236.57,364.10 229.27,363.74 221.98,363.37 214.69,363.01 207.40,362.65 200.11,362.28 192.82,361.92 185.53,361.56 178.24,361.20 170.95,360.83 163.66,360.47 156.37,360.11 149.08,359.74 141.79,359.38 134.50,359.02 127.21,358.65 119.92,358.29 112.63,357.93 105.34,357.57 98.05,357.20 90.76,356.84 83.47,356.48 76.18,356.11 75.95,363.31 75.96,370.51 76.21,377.71 76.71,384.89 77.45,392.05 78.44,399.18 79.66,406.28 81.13,413.32 82.84,420.32 84.78,427.25 86.96,434.11 89.37,440.90 92.01,447.60 94.88,454.20 97.97,460.70 101.28,467.10 104.80,473.38 108.54,479.53 112.48,485.56 116.63,491.44 120.97,497.19 125.50,502.78 130.23,508.21 135.13,513.48 140.22,518.58 145.47,523.51 150.89,528.25 156.46,532.80 162.19,537.17 168.06,541.33 174.07,545.30 180.21,549.06 186.48,552.60 192.86,555.93 199.35,559.05 205.95,561.94 212.64,564.60 219.41,567.03 226.27,569.24 233.19,571.21 240.18,572.94 247.22,574.43 254.31,575.68 261.44,576.69 268.60,577.46 275.78,577.99 282.98,578.27 290.18,578.30 297.37,578.09 304.56,577.64 311.72,576.94 318.86,576.00 325.96,574.81 333.02,573.39 340.03,571.72 346.97,569.82 353.84,567.68 360.64,565.31 367.36,562.71 373.98,559.89 380.50,556.84 386.92,553.57 393.22,550.08 399.39,546.38 405.44,542.48 411.35,538.37 417.12,534.06 422.74,529.56 428.20,524.87 433.50,520.00 438.63,514.94 443.59,509.72 448.37,504.33 452.96,498.79 457.36,493.09 461.56,487.24 465.56,481.25 469.35,475.14 472.94,468.89 476.31,462.53 479.46,456.06 482.39,449.48 485.09,442.81 487.57,436.05 489.81,429.20 491.83,422.29 493.60,415.31 495.14,408.28 496.43,401.20 497.49,394.07 498.30,386.92 498.87,379.74 499.19,372.55 499.27,365.35 499.10,358.15 498.69,350.97 498.04,343.80 497.14,336.65 496.00,329.54 494.61,322.48 492.99,315.46 491.13,308.51 489.04,301.62 486.71,294.81 484.15,288.08 481.37,281.44 478.36,274.90 475.13,268.46 471.68,262.14 468.02,255.94 464.15,249.87 460.07,243.93 455.80,238.14 451.33,232.49 446.68,227.00 441.84,221.67 436.82,216.51 431.62,211.52 426.27,206.71 420.75,202.09 415.07,197.66 409.25,193.42 403.29,189.38 397.20,185.55 390.97,181.93 384.63,178.52 378.18,175.33 371.62,172.36 364.96,169.61 358.22,167.09 351.39,164.81 344.49,162.75 337.52,160.94 330.50,159.36 323.42,158.02 316.31,156.92 309.16,156.07 301.99,155.46 294.79,155.09 287.60,154.97 287.60,162.26 287.60,169.56 287.60,176.86 287.60,184.16 287.60,191.46 287.60,198.76 287.60,206.06 287.60,213.36 287.60,220.66 287.60,227.96 287.60,235.26 287.60,242.56 287.60,249.85 287.60,257.15 287.60,264.45 287.60,271.75 287.60,279.05 287.60,286.35 287.60,293.65 287.60,300.95 287.60,308.25 287.60,315.55 287.60,322.85 287.60,330.15 287.60,337.44 287.60,344.74 287.60,352.04 287.60,359.34 287.60,366.64 287.60,366.64 ' style='stroke-width: 3.20; fill: #FF3030;' clip-path='url(#cpMjMuMDB8NTUyLjE5fDYzMS4yNHwxMDIuMDU=)' />
<polygon points='287.60,366.64 284.96,359.83 282.32,353.03 279.69,346.22 277.05,339.42 274.41,332.61 271.78,325.80 269.14,319.00 266.50,312.19 263.87,305.38 261.23,298.58 258.59,291.77 255.95,284.97 253.32,278.16 250.68,271.35 248.04,264.55 245.41,257.74 242.77,250.93 240.13,244.13 237.50,237.32 234.86,230.52 232.22,223.71 229.59,216.90 226.95,210.10 224.31,203.29 221.68,196.48 219.04,189.68 216.40,182.87 213.77,176.07 211.13,169.26 204.49,171.96 197.95,174.89 191.51,178.03 185.17,181.39 178.96,184.97 172.87,188.75 166.91,192.74 161.09,196.92 155.42,201.30 149.90,205.87 144.53,210.63 139.33,215.56 134.30,220.67 129.45,225.94 124.77,231.38 120.29,236.97 115.99,242.71 111.90,248.59 108.00,254.61 104.31,260.75 100.83,267.02 97.56,273.40 94.51,279.89 91.69,286.48 89.09,293.15 86.71,299.92 84.57,306.76 82.66,313.67 80.98,320.64 79.54,327.66 78.34,334.73 77.38,341.83 76.66,348.96 76.18,356.11 83.47,356.48 90.76,356.84 98.05,357.20 105.34,357.57 112.63,357.93 119.92,358.29 127.21,358.65 134.50,359.02 141.79,359.38 149.08,359.74 156.37,360.11 163.66,360.47 170.95,360.83 178.24,361.20 185.53,361.56 192.82,361.92 200.11,362.28 207.40,362.65 214.69,363.01 221.98,363.37 229.27,363.74 236.57,364.10 243.86,364.46 251.15,364.83 258.44,365.19 265.73,365.55 273.02,365.92 280.31,366.28 287.60,366.64 287.60,366.64 ' style='stroke-width: 3.20; fill: #CD9B1D;' clip-path='url(#cpMjMuMDB8NTUyLjE5fDYzMS4yNHwxMDIuMDU=)' />
<polygon points='287.60,366.64 286.97,359.37 286.35,352.10 285.73,344.82 285.11,337.55 284.49,330.28 283.87,323.01 283.24,315.73 282.62,308.46 282.00,301.19 281.38,293.91 280.76,286.64 280.13,279.37 279.51,272.10 278.89,264.82 278.27,257.55 277.65,250.28 277.03,243.01 276.40,235.73 275.78,228.46 275.16,221.19 274.54,213.92 273.92,206.64 273.29,199.37 272.67,192.10 272.05,184.83 271.43,177.55 270.81,170.28 270.19,163.01 269.56,155.73 262.08,156.51 254.63,157.55 247.22,158.85 239.87,160.42 232.57,162.24 225.34,164.33 218.19,166.67 211.13,169.26 213.77,176.07 216.40,182.87 219.04,189.68 221.68,196.48 224.31,203.29 226.95,210.10 229.59,216.90 232.22,223.71 234.86,230.52 237.50,237.32 240.13,244.13 242.77,250.93 245.41,257.74 248.04,264.55 250.68,271.35 253.32,278.16 255.95,284.97 258.59,291.77 261.23,298.58 263.87,305.38 266.50,312.19 269.14,319.00 271.78,325.80 274.41,332.61 277.05,339.42 279.69,346.22 282.32,353.03 284.96,359.83 287.60,366.64 287.60,366.64 ' style='stroke-width: 3.20; fill: #FFD700;' clip-path='url(#cpMjMuMDB8NTUyLjE5fDYzMS4yNHwxMDIuMDU=)' />
<polygon points='287.60,366.64 287.60,359.34 287.60,352.04 287.60,344.74 287.60,337.44 287.60,330.15 287.60,322.85 287.60,315.55 287.60,308.25 287.60,300.95 287.60,293.65 287.60,286.35 287.60,279.05 287.60,271.75 287.60,264.45 287.60,257.15 287.60,249.85 287.60,242.56 287.60,235.26 287.60,227.96 287.60,220.66 287.60,213.36 287.60,206.06 287.60,198.76 287.60,191.46 287.60,184.16 287.60,176.86 287.60,169.56 287.60,162.26 287.60,154.97 278.57,155.16 269.56,155.73 270.19,163.01 270.81,170.28 271.43,177.55 272.05,184.83 272.67,192.10 273.29,199.37 273.92,206.64 274.54,213.92 275.16,221.19 275.78,228.46 276.40,235.73 277.03,243.01 277.65,250.28 278.27,257.55 278.89,264.82 279.51,272.10 280.13,279.37 280.76,286.64 281.38,293.91 282.00,301.19 282.62,308.46 283.24,315.73 283.87,323.01 284.49,330.28 285.11,337.55 285.73,344.82 286.35,352.10 286.97,359.37 287.60,366.64 287.60,366.64 ' style='stroke-width: 3.20; fill: #228B22;' clip-path='url(#cpMjMuMDB8NTUyLjE5fDYzMS4yNHwxMDIuMDU=)' />
<g clip-path='url(#cpMjMuMDB8NTUyLjE5fDYzMS4yNHwxMDIuMDU=)'><text x='415.25' y='544.89' style='font-size: 28.45px; font-family: Liberation Sans;' textLength='47.47px' lengthAdjust='spacingAndGlyphs'>335</text></g>
<g clip-path='url(#cpMjMuMDB8NTUyLjE5fDYzMS4yNHwxMDIuMDU=)'><text x='92.00' y='238.65' style='font-size: 28.45px; font-family: Liberation Sans;' textLength='31.65px' lengthAdjust='spacingAndGlyphs'>81</text></g>
<g clip-path='url(#cpMjMuMDB8NTUyLjE5fDYzMS4yNHwxMDIuMDU=)'><text x='226.99' y='154.41' style='font-size: 28.45px; font-family: Liberation Sans;' textLength='31.65px' lengthAdjust='spacingAndGlyphs'>20</text></g>
<g clip-path='url(#cpMjMuMDB8NTUyLjE5fDYzMS4yNHwxMDIuMDU=)'><text x='276.46' y='149.96' style='font-size: 28.45px; font-family: Liberation Sans;' textLength='15.82px' lengthAdjust='spacingAndGlyphs'>6</text></g>
<g clip-path='url(#cpMjMuMDB8NTUyLjE5fDYzMS4yNHwxMDIuMDU=)'><text x='285.15' y='131.53' style='font-size: 8.80px; fill: #4D4D4D; font-family: Liberation Sans;' textLength='4.89px' lengthAdjust='spacingAndGlyphs'>0</text></g>
<g clip-path='url(#cpMjMuMDB8NTUyLjE5fDYzMS4yNHwxMDIuMDU=)'><text x='515.74' y='334.26' style='font-size: 8.80px; fill: #4D4D4D; font-family: Liberation Sans;' textLength='14.68px' lengthAdjust='spacingAndGlyphs'>100</text></g>
<g clip-path='url(#cpMjMuMDB8NTUyLjE5fDYzMS4yNHwxMDIuMDU=)'><text x='350.29' y='597.27' style='font-size: 8.80px; fill: #4D4D4D; font-family: Liberation Sans;' textLength='14.68px' lengthAdjust='spacingAndGlyphs'>200</text></g>
<g clip-path='url(#cpMjMuMDB8NTUyLjE5fDYzMS4yNHwxMDIuMDU=)'><text x='65.60' y='472.77' style='font-size: 8.80px; fill: #4D4D4D; font-family: Liberation Sans;' textLength='14.68px' lengthAdjust='spacingAndGlyphs'>300</text></g>
<g clip-path='url(#cpMjMuMDB8NTUyLjE5fDYzMS4yNHwxMDIuMDU=)'><text x='146.37' y='172.73' style='font-size: 8.80px; fill: #4D4D4D; font-family: Liberation Sans;' textLength='14.68px' lengthAdjust='spacingAndGlyphs'>400</text></g>
<defs>
  <clipPath id='cpMC4wMHw3MjAuMDB8NzIwLjAwfDAuMDA='>
    <rect x='0.00' y='0.00' width='720.00' height='720.00' />
  </clipPath>
</defs>
<polyline points='20.26,260.80 23.00,260.80 ' style='stroke-width: 1.07; stroke: #333333; stroke-linecap: butt;' clip-path='url(#cpMC4wMHw3MjAuMDB8NzIwLjAwfDAuMDA=)' />
<g clip-path='url(#cpMC4wMHw3MjAuMDB8NzIwLjAwfDAuMDA=)'><text x='177.85' y='648.30' style='font-size: 11.00px; font-family: Liberation Sans;' textLength='219.50px' lengthAdjust='spacingAndGlyphs'>Fraction of variance Observed Inside Section</text></g>
<g clip-path='url(#cpMC4wMHw3MjAuMDB8NzIwLjAwfDAuMDA=)'><text transform='translate(13.05,385.90) rotate(-90)' style='font-size: 11.00px; font-family: Liberation Sans;' textLength='38.52px' lengthAdjust='spacingAndGlyphs'>Quartile</text></g>
<rect x='563.15' y='318.94' width='151.37' height='95.41' style='stroke-width: 1.07; stroke: none; fill: #FFFFFF;' clip-path='url(#cpMC4wMHw3MjAuMDB8NzIwLjAwfDAuMDA=)' />
<g clip-path='url(#cpMC4wMHw3MjAuMDB8NzIwLjAwfDAuMDA=)'><text x='568.63' y='333.13' style='font-size: 11.00px; font-family: Liberation Sans;' textLength='36.69px' lengthAdjust='spacingAndGlyphs'>Section</text></g>
<rect x='568.63' y='339.75' width='17.28' height='17.28' style='stroke-width: 1.07; stroke: #FFFFFF; fill: #F2F2F2;' clip-path='url(#cpMC4wMHw3MjAuMDB8NzIwLjAwfDAuMDA=)' />
<rect x='570.75' y='341.87' width='13.03' height='13.03' style='stroke-width: 3.20; stroke-linecap: square; stroke-linejoin: miter; fill: #FF3030;' clip-path='url(#cpMC4wMHw3MjAuMDB8NzIwLjAwfDAuMDA=)' />
<rect x='568.63' y='357.03' width='17.28' height='17.28' style='stroke-width: 1.07; stroke: #FFFFFF; fill: #F2F2F2;' clip-path='url(#cpMC4wMHw3MjAuMDB8NzIwLjAwfDAuMDA=)' />
<rect x='570.75' y='359.15' width='13.03' height='13.03' style='stroke-width: 3.20; stroke-linecap: square; stroke-linejoin: miter; fill: #CD9B1D;' clip-path='url(#cpMC4wMHw3MjAuMDB8NzIwLjAwfDAuMDA=)' />
<rect x='568.63' y='374.31' width='17.28' height='17.28' style='stroke-width: 1.07; stroke: #FFFFFF; fill: #F2F2F2;' clip-path='url(#cpMC4wMHw3MjAuMDB8NzIwLjAwfDAuMDA=)' />
<rect x='570.75' y='376.43' width='13.03' height='13.03' style='stroke-width: 3.20; stroke-linecap: square; stroke-linejoin: miter; fill: #FFD700;' clip-path='url(#cpMC4wMHw3MjAuMDB8NzIwLjAwfDAuMDA=)' />
<rect x='568.63' y='391.59' width='17.28' height='17.28' style='stroke-width: 1.07; stroke: #FFFFFF; fill: #F2F2F2;' clip-path='url(#cpMC4wMHw3MjAuMDB8NzIwLjAwfDAuMDA=)' />
<rect x='570.75' y='393.71' width='13.03' height='13.03' style='stroke-width: 3.20; stroke-linecap: square; stroke-linejoin: miter; fill: #228B22;' clip-path='url(#cpMC4wMHw3MjAuMDB8NzIwLjAwfDAuMDA=)' />
<g clip-path='url(#cpMC4wMHw3MjAuMDB8NzIwLjAwfDAuMDA=)'><text x='591.39' y='351.41' style='font-size: 8.80px; font-family: Liberation Sans;' textLength='114.22px' lengthAdjust='spacingAndGlyphs'>Bottom Section: 0-25%, x&lt;74</text></g>
<g clip-path='url(#cpMC4wMHw3MjAuMDB8NzIwLjAwfDAuMDA=)'><text x='591.39' y='368.69' style='font-size: 8.80px; font-family: Liberation Sans;' textLength='116.67px' lengthAdjust='spacingAndGlyphs'>Below Middle: 25-50%, x&lt;143</text></g>
<g clip-path='url(#cpMC4wMHw3MjAuMDB8NzIwLjAwfDAuMDA=)'><text x='591.39' y='385.97' style='font-size: 8.80px; font-family: Liberation Sans;' textLength='117.65px' lengthAdjust='spacingAndGlyphs'>Above Middle: 50-75%, x&lt;213</text></g>
<g clip-path='url(#cpMC4wMHw3MjAuMDB8NzIwLjAwfDAuMDA=)'><text x='591.39' y='403.25' style='font-size: 8.80px; font-family: Liberation Sans;' textLength='116.19px' lengthAdjust='spacingAndGlyphs'>Top Section: 75-100%, x&lt;283</text></g>
<g clip-path='url(#cpMC4wMHw3MjAuMDB8NzIwLjAwfDAuMDA=)'><text x='23.00' y='94.28' style='font-size: 11.00px; font-family: Liberation Sans;' textLength='113.72px' lengthAdjust='spacingAndGlyphs'>Antioxidants in Carrots.</text></g>
<g clip-path='url(#cpMC4wMHw3MjAuMDB8NzIwLjAwfDAuMDA=)'><text x='23.00' y='78.50' style='font-size: 13.20px; font-family: Liberation Sans;' textLength='366.14px' lengthAdjust='spacingAndGlyphs'>Comparison of Population in Each Quarter Section of Variance</text></g>
</svg>
