<?xml version='1.0' encoding='UTF-8' ?>
<svg xmlns='http://www.w3.org/2000/svg' xmlns:xlink='http://www.w3.org/1999/xlink' viewBox='0 0 720.00 720.00'>
<defs>
  <style type='text/css'><![CDATA[
    line, polyline, polygon, path, rect, circle {
      fill: none;
      stroke: #000000;
      stroke-linecap: round;
      stroke-linejoin: round;
      stroke-miterlimit: 10.00;
    }
  ]]></style>
</defs>
<rect width='100%' height='100%' style='stroke: none; fill: #FFFFFF;'/>
<rect x='0.00' y='0.00' width='720.00' height='720.00' style='stroke-width: 1.07; stroke: #FFFFFF; fill: #FFFFFF;' />
<defs>
  <clipPath id='cpMzYuMzd8NzE0LjUyfDY4MS4wNnwzNy44Mg=='>
    <rect x='36.37' y='37.82' width='678.15' height='643.23' />
  </clipPath>
</defs>
<rect x='36.37' y='37.82' width='678.15' height='643.23' style='stroke-width: 1.07; stroke: none; fill: #EBEBEB;' clip-path='url(#cpMzYuMzd8NzE0LjUyfDY4MS4wNnwzNy44Mg==)' />
<polyline points='36.37,549.23 714.52,549.23 ' style='stroke-width: 0.53; stroke: #FFFFFF; stroke-linecap: butt;' clip-path='url(#cpMzYuMzd8NzE0LjUyfDY4MS4wNnwzNy44Mg==)' />
<polyline points='36.37,344.05 714.52,344.05 ' style='stroke-width: 0.53; stroke: #FFFFFF; stroke-linecap: butt;' clip-path='url(#cpMzYuMzd8NzE0LjUyfDY4MS4wNnwzNy44Mg==)' />
<polyline points='36.37,138.87 714.52,138.87 ' style='stroke-width: 0.53; stroke: #FFFFFF; stroke-linecap: butt;' clip-path='url(#cpMzYuMzd8NzE0LjUyfDY4MS4wNnwzNy44Mg==)' />
<polyline points='151.91,681.06 151.91,37.82 ' style='stroke-width: 0.53; stroke: #FFFFFF; stroke-linecap: butt;' clip-path='url(#cpMzYuMzd8NzE0LjUyfDY4MS4wNnwzNy44Mg==)' />
<polyline points='295.65,681.06 295.65,37.82 ' style='stroke-width: 0.53; stroke: #FFFFFF; stroke-linecap: butt;' clip-path='url(#cpMzYuMzd8NzE0LjUyfDY4MS4wNnwzNy44Mg==)' />
<polyline points='439.39,681.06 439.39,37.82 ' style='stroke-width: 0.53; stroke: #FFFFFF; stroke-linecap: butt;' clip-path='url(#cpMzYuMzd8NzE0LjUyfDY4MS4wNnwzNy44Mg==)' />
<polyline points='583.13,681.06 583.13,37.82 ' style='stroke-width: 0.53; stroke: #FFFFFF; stroke-linecap: butt;' clip-path='url(#cpMzYuMzd8NzE0LjUyfDY4MS4wNnwzNy44Mg==)' />
<polyline points='36.37,651.82 714.52,651.82 ' style='stroke-width: 1.07; stroke: #FFFFFF; stroke-linecap: butt;' clip-path='url(#cpMzYuMzd8NzE0LjUyfDY4MS4wNnwzNy44Mg==)' />
<polyline points='36.37,446.64 714.52,446.64 ' style='stroke-width: 1.07; stroke: #FFFFFF; stroke-linecap: butt;' clip-path='url(#cpMzYuMzd8NzE0LjUyfDY4MS4wNnwzNy44Mg==)' />
<polyline points='36.37,241.46 714.52,241.46 ' style='stroke-width: 1.07; stroke: #FFFFFF; stroke-linecap: butt;' clip-path='url(#cpMzYuMzd8NzE0LjUyfDY4MS4wNnwzNy44Mg==)' />
<polyline points='80.04,681.06 80.04,37.82 ' style='stroke-width: 1.07; stroke: #FFFFFF; stroke-linecap: butt;' clip-path='url(#cpMzYuMzd8NzE0LjUyfDY4MS4wNnwzNy44Mg==)' />
<polyline points='223.78,681.06 223.78,37.82 ' style='stroke-width: 1.07; stroke: #FFFFFF; stroke-linecap: butt;' clip-path='url(#cpMzYuMzd8NzE0LjUyfDY4MS4wNnwzNy44Mg==)' />
<polyline points='367.52,681.06 367.52,37.82 ' style='stroke-width: 1.07; stroke: #FFFFFF; stroke-linecap: butt;' clip-path='url(#cpMzYuMzd8NzE0LjUyfDY4MS4wNnwzNy44Mg==)' />
<polyline points='511.26,681.06 511.26,37.82 ' style='stroke-width: 1.07; stroke: #FFFFFF; stroke-linecap: butt;' clip-path='url(#cpMzYuMzd8NzE0LjUyfDY4MS4wNnwzNy44Mg==)' />
<polyline points='655.00,681.06 655.00,37.82 ' style='stroke-width: 1.07; stroke: #FFFFFF; stroke-linecap: butt;' clip-path='url(#cpMzYuMzd8NzE0LjUyfDY4MS4wNnwzNy44Mg==)' />
<rect x='67.20' y='67.06' width='25.69' height='584.76' style='stroke-width: 1.07; stroke: #BEBEBE; stroke-linecap: square; stroke-linejoin: miter; fill: #7AC5CD;' clip-path='url(#cpMzYuMzd8NzE0LjUyfDY4MS4wNnwzNy44Mg==)' />
<rect x='92.88' y='385.09' width='25.69' height='266.73' style='stroke-width: 1.07; stroke: #BEBEBE; stroke-linecap: square; stroke-linejoin: miter; fill: #7AC5CD;' clip-path='url(#cpMzYuMzd8NzE0LjUyfDY4MS4wNnwzNy44Mg==)' />
<rect x='118.57' y='508.20' width='25.69' height='143.62' style='stroke-width: 1.07; stroke: #BEBEBE; stroke-linecap: square; stroke-linejoin: miter; fill: #7AC5CD;' clip-path='url(#cpMzYuMzd8NzE0LjUyfDY4MS4wNnwzNy44Mg==)' />
<rect x='144.26' y='600.53' width='25.69' height='51.29' style='stroke-width: 1.07; stroke: #BEBEBE; stroke-linecap: square; stroke-linejoin: miter; fill: #7AC5CD;' clip-path='url(#cpMzYuMzd8NzE0LjUyfDY4MS4wNnwzNy44Mg==)' />
<rect x='169.95' y='610.79' width='25.69' height='41.04' style='stroke-width: 1.07; stroke: #BEBEBE; stroke-linecap: square; stroke-linejoin: miter; fill: #7AC5CD;' clip-path='url(#cpMzYuMzd8NzE0LjUyfDY4MS4wNnwzNy44Mg==)' />
<rect x='195.63' y='621.04' width='25.69' height='30.78' style='stroke-width: 1.07; stroke: #BEBEBE; stroke-linecap: square; stroke-linejoin: miter; fill: #7AC5CD;' clip-path='url(#cpMzYuMzd8NzE0LjUyfDY4MS4wNnwzNy44Mg==)' />
<rect x='221.32' y='651.82' width='25.69' height='0.00' style='stroke-width: 1.07; stroke: #BEBEBE; stroke-linecap: square; stroke-linejoin: miter; fill: #7AC5CD;' clip-path='url(#cpMzYuMzd8NzE0LjUyfDY4MS4wNnwzNy44Mg==)' />
<rect x='247.01' y='651.82' width='25.69' height='0.00' style='stroke-width: 1.07; stroke: #BEBEBE; stroke-linecap: square; stroke-linejoin: miter; fill: #7AC5CD;' clip-path='url(#cpMzYuMzd8NzE0LjUyfDY4MS4wNnwzNy44Mg==)' />
<rect x='272.70' y='651.82' width='25.69' height='0.00' style='stroke-width: 1.07; stroke: #BEBEBE; stroke-linecap: square; stroke-linejoin: miter; fill: #7AC5CD;' clip-path='url(#cpMzYuMzd8NzE0LjUyfDY4MS4wNnwzNy44Mg==)' />
<rect x='298.38' y='651.82' width='25.69' height='0.00' style='stroke-width: 1.07; stroke: #BEBEBE; stroke-linecap: square; stroke-linejoin: miter; fill: #7AC5CD;' clip-path='url(#cpMzYuMzd8NzE0LjUyfDY4MS4wNnwzNy44Mg==)' />
<rect x='324.07' y='651.82' width='25.69' height='0.00' style='stroke-width: 1.07; stroke: #BEBEBE; stroke-linecap: square; stroke-linejoin: miter; fill: #7AC5CD;' clip-path='url(#cpMzYuMzd8NzE0LjUyfDY4MS4wNnwzNy44Mg==)' />
<rect x='349.76' y='651.82' width='25.69' height='0.00' style='stroke-width: 1.07; stroke: #BEBEBE; stroke-linecap: square; stroke-linejoin: miter; fill: #7AC5CD;' clip-path='url(#cpMzYuMzd8NzE0LjUyfDY4MS4wNnwzNy44Mg==)' />
<rect x='375.45' y='651.82' width='25.69' height='0.00' style='stroke-width: 1.07; stroke: #BEBEBE; stroke-linecap: square; stroke-linejoin: miter; fill: #7AC5CD;' clip-path='url(#cpMzYuMzd8NzE0LjUyfDY4MS4wNnwzNy44Mg==)' />
<rect x='401.13' y='651.82' width='25.69' height='0.00' style='stroke-width: 1.07; stroke: #BEBEBE; stroke-linecap: square; stroke-linejoin: miter; fill: #7AC5CD;' clip-path='url(#cpMzYuMzd8NzE0LjUyfDY4MS4wNnwzNy44Mg==)' />
<rect x='426.82' y='651.82' width='25.69' height='0.00' style='stroke-width: 1.07; stroke: #BEBEBE; stroke-linecap: square; stroke-linejoin: miter; fill: #7AC5CD;' clip-path='url(#cpMzYuMzd8NzE0LjUyfDY4MS4wNnwzNy44Mg==)' />
<rect x='452.51' y='651.82' width='25.69' height='0.00' style='stroke-width: 1.07; stroke: #BEBEBE; stroke-linecap: square; stroke-linejoin: miter; fill: #7AC5CD;' clip-path='url(#cpMzYuMzd8NzE0LjUyfDY4MS4wNnwzNy44Mg==)' />
<rect x='478.20' y='651.82' width='25.69' height='0.00' style='stroke-width: 1.07; stroke: #BEBEBE; stroke-linecap: square; stroke-linejoin: miter; fill: #7AC5CD;' clip-path='url(#cpMzYuMzd8NzE0LjUyfDY4MS4wNnwzNy44Mg==)' />
<rect x='503.88' y='651.82' width='25.69' height='0.00' style='stroke-width: 1.07; stroke: #BEBEBE; stroke-linecap: square; stroke-linejoin: miter; fill: #7AC5CD;' clip-path='url(#cpMzYuMzd8NzE0LjUyfDY4MS4wNnwzNy44Mg==)' />
<rect x='529.57' y='651.82' width='25.69' height='0.00' style='stroke-width: 1.07; stroke: #BEBEBE; stroke-linecap: square; stroke-linejoin: miter; fill: #7AC5CD;' clip-path='url(#cpMzYuMzd8NzE0LjUyfDY4MS4wNnwzNy44Mg==)' />
<rect x='555.26' y='651.82' width='25.69' height='0.00' style='stroke-width: 1.07; stroke: #BEBEBE; stroke-linecap: square; stroke-linejoin: miter; fill: #7AC5CD;' clip-path='url(#cpMzYuMzd8NzE0LjUyfDY4MS4wNnwzNy44Mg==)' />
<rect x='580.95' y='651.82' width='25.69' height='0.00' style='stroke-width: 1.07; stroke: #BEBEBE; stroke-linecap: square; stroke-linejoin: miter; fill: #7AC5CD;' clip-path='url(#cpMzYuMzd8NzE0LjUyfDY4MS4wNnwzNy44Mg==)' />
<rect x='606.63' y='651.82' width='25.69' height='0.00' style='stroke-width: 1.07; stroke: #BEBEBE; stroke-linecap: square; stroke-linejoin: miter; fill: #7AC5CD;' clip-path='url(#cpMzYuMzd8NzE0LjUyfDY4MS4wNnwzNy44Mg==)' />
<rect x='632.32' y='651.82' width='25.69' height='0.00' style='stroke-width: 1.07; stroke: #BEBEBE; stroke-linecap: square; stroke-linejoin: miter; fill: #7AC5CD;' clip-path='url(#cpMzYuMzd8NzE0LjUyfDY4MS4wNnwzNy44Mg==)' />
<rect x='658.01' y='641.56' width='25.69' height='10.26' style='stroke-width: 1.07; stroke: #BEBEBE; stroke-linecap: square; stroke-linejoin: miter; fill: #7AC5CD;' clip-path='url(#cpMzYuMzd8NzE0LjUyfDY4MS4wNnwzNy44Mg==)' />
<defs>
  <clipPath id='cpMC4wMHw3MjAuMDB8NzIwLjAwfDAuMDA='>
    <rect x='0.00' y='0.00' width='720.00' height='720.00' />
  </clipPath>
</defs>
<g clip-path='url(#cpMC4wMHw3MjAuMDB8NzIwLjAwfDAuMDA=)'><text x='26.55' y='654.85' style='font-size: 8.80px; fill: #4D4D4D; font-family: Liberation Sans;' textLength='4.89px' lengthAdjust='spacingAndGlyphs'>0</text></g>
<g clip-path='url(#cpMC4wMHw3MjAuMDB8NzIwLjAwfDAuMDA=)'><text x='21.65' y='449.67' style='font-size: 8.80px; fill: #4D4D4D; font-family: Liberation Sans;' textLength='9.79px' lengthAdjust='spacingAndGlyphs'>20</text></g>
<g clip-path='url(#cpMC4wMHw3MjAuMDB8NzIwLjAwfDAuMDA=)'><text x='21.65' y='244.49' style='font-size: 8.80px; fill: #4D4D4D; font-family: Liberation Sans;' textLength='9.79px' lengthAdjust='spacingAndGlyphs'>40</text></g>
<polyline points='33.63,651.82 36.37,651.82 ' style='stroke-width: 1.07; stroke: #333333; stroke-linecap: butt;' clip-path='url(#cpMC4wMHw3MjAuMDB8NzIwLjAwfDAuMDA=)' />
<polyline points='33.63,446.64 36.37,446.64 ' style='stroke-width: 1.07; stroke: #333333; stroke-linecap: butt;' clip-path='url(#cpMC4wMHw3MjAuMDB8NzIwLjAwfDAuMDA=)' />
<polyline points='33.63,241.46 36.37,241.46 ' style='stroke-width: 1.07; stroke: #333333; stroke-linecap: butt;' clip-path='url(#cpMC4wMHw3MjAuMDB8NzIwLjAwfDAuMDA=)' />
<polyline points='80.04,683.80 80.04,681.06 ' style='stroke-width: 1.07; stroke: #333333; stroke-linecap: butt;' clip-path='url(#cpMC4wMHw3MjAuMDB8NzIwLjAwfDAuMDA=)' />
<polyline points='223.78,683.80 223.78,681.06 ' style='stroke-width: 1.07; stroke: #333333; stroke-linecap: butt;' clip-path='url(#cpMC4wMHw3MjAuMDB8NzIwLjAwfDAuMDA=)' />
<polyline points='367.52,683.80 367.52,681.06 ' style='stroke-width: 1.07; stroke: #333333; stroke-linecap: butt;' clip-path='url(#cpMC4wMHw3MjAuMDB8NzIwLjAwfDAuMDA=)' />
<polyline points='511.26,683.80 511.26,681.06 ' style='stroke-width: 1.07; stroke: #333333; stroke-linecap: butt;' clip-path='url(#cpMC4wMHw3MjAuMDB8NzIwLjAwfDAuMDA=)' />
<polyline points='655.00,683.80 655.00,681.06 ' style='stroke-width: 1.07; stroke: #333333; stroke-linecap: butt;' clip-path='url(#cpMC4wMHw3MjAuMDB8NzIwLjAwfDAuMDA=)' />
<g clip-path='url(#cpMC4wMHw3MjAuMDB8NzIwLjAwfDAuMDA=)'><text x='77.59' y='692.04' style='font-size: 8.80px; fill: #4D4D4D; font-family: Liberation Sans;' textLength='4.89px' lengthAdjust='spacingAndGlyphs'>0</text></g>
<g clip-path='url(#cpMC4wMHw3MjAuMDB8NzIwLjAwfDAuMDA=)'><text x='213.99' y='692.04' style='font-size: 8.80px; fill: #4D4D4D; font-family: Liberation Sans;' textLength='19.58px' lengthAdjust='spacingAndGlyphs'>2000</text></g>
<g clip-path='url(#cpMC4wMHw3MjAuMDB8NzIwLjAwfDAuMDA=)'><text x='357.73' y='692.04' style='font-size: 8.80px; fill: #4D4D4D; font-family: Liberation Sans;' textLength='19.58px' lengthAdjust='spacingAndGlyphs'>4000</text></g>
<g clip-path='url(#cpMC4wMHw3MjAuMDB8NzIwLjAwfDAuMDA=)'><text x='501.47' y='692.04' style='font-size: 8.80px; fill: #4D4D4D; font-family: Liberation Sans;' textLength='19.58px' lengthAdjust='spacingAndGlyphs'>6000</text></g>
<g clip-path='url(#cpMC4wMHw3MjAuMDB8NzIwLjAwfDAuMDA=)'><text x='645.21' y='692.04' style='font-size: 8.80px; fill: #4D4D4D; font-family: Liberation Sans;' textLength='19.58px' lengthAdjust='spacingAndGlyphs'>8000</text></g>
<g clip-path='url(#cpMC4wMHw3MjAuMDB8NzIwLjAwfDAuMDA=)'><text x='270.39' y='710.37' style='font-size: 20.00px; font-family: Liberation Sans;' textLength='210.11px' lengthAdjust='spacingAndGlyphs'>Amount Of Antioxidants</text></g>
<g clip-path='url(#cpMC4wMHw3MjAuMDB8NzIwLjAwfDAuMDA=)'><text transform='translate(15.80,456.16) rotate(-90)' style='font-size: 15.00px; font-family: Liberation Sans;' textLength='193.43px' lengthAdjust='spacingAndGlyphs'>Specimens Within the Range</text></g>
<g clip-path='url(#cpMC4wMHw3MjAuMDB8NzIwLjAwfDAuMDA=)'><text x='36.37' y='26.12' style='font-size: 30.00px; font-family: Liberation Sans;' textLength='478.55px' lengthAdjust='spacingAndGlyphs'>Antioxidants Histogram For Spinach</text></g>
</svg>
