Crop,Variable,Samples,R2,F test p-value,trimmed R2,"F test p-value, trimmed",t test p.val (Intercept),t test p.val PH_soil_10cm,t test p.val PH_soil_20cm,t test p.val respiration_soil_10cm,t test p.val respiration_soil_20cm,t test p.val organic_carbon_percentage_10cm,t test p.val organic_carbon_percentage_20cm,coefficient_Intercept,coefficient_PH_10cm,coefficient_PH_20cm,coefficient_respiration_10cm,coefficient_respiration_20cm,coefficient_carbon_10cm,coefficient_carbon_20cm
mustard_greens,Polyphenols,13,0.9713455330309202,2.8781045504522318e-5,0.9958432183112084,1.6550929514691504e-5,0.356,0.0454,0.9858,0.3226,0.3125,8e-4,0.0972,-889.13,335.31,1.24,0.71,-0.88,-171.93,58.31
mustard_greens,Polyphenols,13,0.9713455330309202,2.8781045504522318e-5,0.9958432183112084,1.6550929514691504e-5,0.356,0.0454,0.9858,0.3226,0.3125,8e-4,0.0972,-889.1259540970941,335.3062035483799,1.2382978589053923,0.709602467101192,-0.8847162997371563,-171.93283534893342,58.31016499193781
blueberry,BQI,10,0.050878293900676996,0.5163629048429037,0.9950975531608656,0.04959705869665276,0.0982,0.0909,0.353,0.0313,0.0265,0.2104,0.2446,1.22,-0.2,0.05,-0.01,0.01,-0.02,0.02
blueberry,BQI,10,0.050878293900676996,0.5163629048429037,0.9950975531608656,0.04959705869665276,0.0982,0.0909,0.353,0.0313,0.0265,0.2104,0.2446,1.218339857432933,-0.19914403408999168,0.05188873664426008,-0.010307305847063974,0.014191030957668866,-0.019421689391965837,0.02493225955997299
blueberry,Brix,12,0.9343977935862516,0.0011582650532959704,0.9860597929127393,0.001378083763428739,0.0028,0.1869,5e-4,0.0018,0.0072,0.0184,0.0084,-31.65,-1,9.03,-0.11,0.08,-0.51,1.03
blueberry,Brix,12,0.9343977935862516,0.0011582650532959704,0.9860597929127393,0.001378083763428739,0.0028,0.1869,5e-4,0.0018,0.0072,0.0184,0.0084,-31.64681035941431,-0.9963002165009995,9.029854694977882,-0.11151111013912145,0.08274135724043022,-0.5083766564263926,1.034236814036762
leeks,Polyphenols,13,0.6850704352909898,0.030402499353457846,0.96191333143778,0.00136444502143096,0.0069,0.1568,0.0039,0.3639,0.1453,0.1744,0.0254,-2924.25,-98.5,656.36,-0.25,-0.99,6.16,-18.45
leeks,Polyphenols,13,0.6850704352909898,0.030402499353457846,0.96191333143778,0.00136444502143096,0.0069,0.1568,0.0039,0.3639,0.1453,0.1744,0.0254,-2924.247843010926,-98.49606852225199,656.3562049963872,-0.24756157802117967,-0.9904621362124845,6.157732389534337,-18.448176330284078
mustard_greens,Antioxidants,13,0.9248263904310763,5.015257334902712e-4,0.961065684596983,0.001425204027322935,0.2225,0.2074,0.5262,0.9567,0.5901,0.095,0.7172,195341.12,-19417.14,-9696,8.82,40.4,-3222.43,-872.1
mustard_greens,Antioxidants,13,0.9248263904310763,5.015257334902712e-4,0.961065684596983,0.001425204027322935,0.2225,0.2074,0.5262,0.9567,0.5901,0.095,0.7172,195341.12327241723,-19417.135010575985,-9696.001437710973,8.815368458654472,40.40438518299469,-3222.434728577333,-872.1047109233683
bok_choi,BQI,17,0.47658883414127173,0.041793462534227,0.8315454565780953,0.002403581269079913,0.0826,0.1999,0.0462,0.0031,0.0156,4e-4,0.0067,-3.9,-0.11,0.86,0.01,-0.01,0.04,-0.05
bok_choi,BQI,17,0.47658883414127173,0.041793462534227,0.8315454565780953,0.002403581269079913,0.0826,0.1999,0.0462,0.0031,0.0156,4e-4,0.0067,-3.8982676237854377,-0.11187669099107868,0.8615572978911222,0.008861303412056383,-0.006230772867296379,0.041122350876110096,-0.050201071423467976
blueberry,Antioxidants,11,-0.07197034485971976,0.573874911146644,0.8162981444332762,0.13154581058509207,0.4097,0.0558,0.1901,0.0329,0.0305,0.0575,0.0586,-153772.67,77738.22,-41786.99,-2148.51,2549.05,20070.05,-30054.83
blueberry,Antioxidants,11,-0.07197034485971976,0.573874911146644,0.8162981444332762,0.13154581058509207,0.4097,0.0558,0.1901,0.0329,0.0305,0.0575,0.0586,-153772.66748746813,77738.2221809731,-41786.99181469906,-2148.509995916792,2549.051422207264,20070.045620819586,-30054.832789803168
leeks,Antioxidants,13,0.05822468471579545,0.4455376003057636,0.8092786744780545,0.03146929689652622,0.3736,0.0104,0.3997,0.095,0.0173,0.1802,0.075,3885.98,-1345.05,734.78,3.82,-12.06,-25.86,56.5
leeks,Antioxidants,13,0.05822468471579545,0.4455376003057636,0.8092786744780545,0.03146929689652622,0.3736,0.0104,0.3997,0.095,0.0173,0.1802,0.075,3885.976938306158,-1345.050739878565,734.7757209920882,3.823731478354952,-12.063016383020228,-25.861690158738167,56.49985196810277
blueberry,Polyphenols,12,0.07308245954492665,0.45072633083145686,0.7800852572965805,0.07939333114656777,0.9549,0.0568,0.0774,0.0177,0.0231,0.0156,0.016,97.63,666.6,-573.01,-20.34,22.62,243.12,-369.68
blueberry,Polyphenols,12,0.07308245954492665,0.45072633083145686,0.7800852572965805,0.07939333114656777,0.9549,0.0568,0.0774,0.0177,0.0231,0.0156,0.016,97.63259747897354,666.6008263073954,-573.0090227175707,-20.342727677551924,22.62395688293504,243.11742494576578,-369.67685305868866
bok_choi,Brix,18,0.6369971162890415,0.005430328340347401,0.7746135109700766,0.0033223196574565517,0.2308,0.1068,0.4913,0.4506,0.98740000000000006,9e-4,0.0257,29.1,-2.76,-2.49,0.03,-0,0.98,-0.4
bok_choi,Brix,18,0.6369971162890415,0.005430328340347401,0.7746135109700766,0.0033223196574565517,0.2308,0.1068,0.4913,0.4506,0.98740000000000006,9e-4,0.0257,29.097750173941396,-2.756785989216649,-2.4897537850246523,0.026058502387864287,-4.981245191756384e-4,0.9785992755940947,-0.39820074644306047
leeks,Brix,12,0.5138366731163779,0.08788138863774697,0.7058306838700497,0.06525050052955483,0.0694,0.0515,NA,0.3959,0.094,0.2859,0.0708,-121.78,24.11,NA,0.05,0.23,-0.73,-2.24
leeks,Brix,12,0.5138366731163779,0.08788138863774697,0.7058306838700497,0.06525050052955483,0.0694,0.0515,NA,0.3959,0.094,0.2859,0.0708,-121.7825559595909,24.106123661820195,NA,0.05283704727720327,0.2253790453840386,-0.7263169496531303,-2.244166475262077
swiss_chard,Brix,39,0.32728770850246225,0.0037679135680475095,0.640409253175675,6.306839452463464e-6,0,0.0032,2e-4,0.3036,0,5e-4,0.0306,61.01,-3.41,-6.67,-0.01,0.12,0.22,-0.33
swiss_chard,Brix,39,0.32728770850246225,0.0037679135680475095,0.640409253175675,6.306839452463464e-6,0,0.0032,2e-4,0.3036,0,5e-4,0.0306,61.01253434846999,-3.4068037307347003,-6.669605770749395,-0.013328324263655066,0.12153279324841117,0.22247846878189273,-0.3269141869491925
spinach,Antioxidants,25,0.2846653314942049,0.054643254039047684,0.6093638699693843,0.002385306800661624,6e-4,0.0288,0.0115,0.311,0.6416,0.0032,0.0256,-8957.47,953.1,728.39,5.21,-2.33,122.88,-206.27
spinach,Antioxidants,25,0.2846653314942049,0.054643254039047684,0.6093638699693843,0.002385306800661624,6e-4,0.0288,0.0115,0.311,0.6416,0.0032,0.0256,-8957.468860723347,953.09746673177,728.3903424631703,5.206165470121899,-2.3280879285951275,122.88142187977141,-206.27160576667336
swiss_chard,Polyphenols,45,0.18385246294009505,0.030102906021460374,0.601175624593312,2.8424927158710034e-6,0.0202,0,0.3306,0.334,0.1339,0.9925,0.1645,-1253.03,352.33,-90.14,-0.74,1.98,0.05,-19.7
swiss_chard,Polyphenols,45,0.18385246294009505,0.030102906021460374,0.601175624593312,2.8424927158710034e-6,0.0202,0,0.3306,0.334,0.1339,0.9925,0.1645,-1253.0316942043726,352.32877806111253,-90.139311702011355,-0.7429605987089006,1.9833462545746239,0.04563263861825746,-19.70436141795257
lettuce,Polyphenols,30,0.14602555761660996,0.13808261665844157,0.5316661909885099,0.002097988343954693,0.3788,0.1359,0.7003,0.0167,0.0511,0.9231,0.6156,216.63,-50.27,13.31,1.27,0.97,-0.09,-0.52
lettuce,Polyphenols,30,0.14602555761660996,0.13808261665844157,0.5316661909885099,0.002097988343954693,0.3788,0.1359,0.7003,0.0167,0.0511,0.9231,0.6156,216.63040409021377,-50.266493776999404,13.311198991923535,1.2720708712269098,0.9687975993957865,-0.08677596159185587,-0.5218538099844575
spinach,Polyphenols,25,0.2178256190679203,0.10210416522587362,0.5265921033360763,0.007986346804725764,0.2842,0.6878,0.7679,0.0212,0.7312,0.132,0.1405,733.13,-37.4,-24.38,3.15,-0.57,-18.04,-32.57
spinach,Polyphenols,25,0.2178256190679203,0.10210416522587362,0.5265921033360763,0.007986346804725764,0.2842,0.6878,0.7679,0.0212,0.7312,0.132,0.1405,733.1346573494891,-37.40403065941329,-24.381684562837428,3.1506158691487567,-0.5747576805864719,-18.041773833106173,-32.574399966240655
kale,Polyphenols,49,0.33423202771451244,5.903543297791636e-4,0.525321389933197,1.3053186380118653e-5,0.0696,0.05,0.7039,0.0577,0.0342,0.4054,1e-4,1512.34,-235.28,44.55,-2.04,4.06,2.98,-35.99
kale,Polyphenols,49,0.33423202771451244,5.903543297791636e-4,0.525321389933197,1.3053186380118653e-5,0.0696,0.05,0.7039,0.0577,0.0342,0.4054,1e-4,1512.3370346295826,-235.27733420042028,44.54706343647859,-2.044342944111775,4.056074152533791,2.9795328366028597,-35.99015313903189
kale,BQI,26,0.17331873521380126,0.13810827355189026,0.5199712760833092,0.00642453288676903,0.0344,0.3582,0.2288,0.7852,0.0071,0.0553,0.0395,1.47,-0.08,-0.09,0,-0.01,0.01,-0.03
kale,BQI,26,0.17331873521380126,0.13810827355189026,0.5199712760833092,0.00642453288676903,0.0344,0.3582,0.2288,0.7852,0.0071,0.0553,0.0395,1.4693881325783473,-0.08335345504254657,-0.08703779501531027,2.2348176396510958e-4,-0.005444806769113226,0.006953292813922232,-0.02531907515319221
peppers,Antioxidants,66,0.23854248770236108,9.82112498517318e-4,0.503928776369746,2.2949456834897575e-7,0.3374,0.7279,0.1291,0.604,1e-4,0,0.2508,-18813.6,-1055.77,5402.62,16.71,133.36,-540.22,296.46
peppers,Antioxidants,66,0.23854248770236108,9.82112498517318e-4,0.503928776369746,2.2949456834897575e-7,0.3374,0.7279,0.1291,0.604,1e-4,0,0.2508,-18813.603599155624,-1055.7746767518163,5402.619844875182,16.71232244745592,133.35625741822088,-540.2219857186998,296.4602076278445
bok_choi,Polyphenols,20,0.22278733306118104,0.1548034847398242,0.5015894670106908,0.03388628500109081,0.0345,0.0184,0.1788,0.061,0.0185,0.6281,0.7,1867.8,-185.46,-122.97,-2.51,2.92,-2.67,1.59
bok_choi,Polyphenols,20,0.22278733306118104,0.1548034847398242,0.5015894670106908,0.03388628500109081,0.0345,0.0184,0.1788,0.061,0.0185,0.6281,0.7,1867.8045243057952,-185.45992040015153,-122.97067621684357,-2.513191646054004,2.921059096823825,-2.6655396128865823,1.59206620492603
peppers,Brix,64,0.30316832196658616,1.3452967653670989e-4,0.4953318499458873,6.344597706098298e-7,0.3944,0.7057,0.3171,0.9991,0,0,0.005,-8.72,0.58,1.81,0,0.08,-0.27,0.39
peppers,Brix,64,0.30316832196658616,1.3452967653670989e-4,0.4953318499458873,6.344597706098298e-7,0.3944,0.7057,0.3171,0.9991,0,0,0.005,-8.72283237385571,0.5796144498250221,1.8068143479747398,2.0401640359134703e-5,0.07617130906674352,-0.27058663716195686,0.3912154977953054
beet,Polyphenols,94,0.1925098412259404,3.4901841533052647e-4,0.47639001350703547,8.475495860693627e-10,0.5513,0.2311,0.4418,0.7452,0,0.0015,0,137.87,-51.93,34.49,0.16,2.99,-4.73,4.79
beet,Polyphenols,94,0.1925098412259404,3.4901841533052647e-4,0.47639001350703547,8.475495860693627e-10,0.5513,0.2311,0.4418,0.7452,0,0.0015,0,137.86830237354172,-51.93365348670776,34.48702993142024,0.15734668707516608,2.985669860834088,-4.729901646019654,4.794964823350688
bok_choi,Antioxidants,20,0.05882544010537172,0.36647821465944264,0.45183408469303976,0.05083431506028069,0.9976,0.7561,0.9558,0.0979,0.0505,0.4412,0.0688,-151.74,1124.71,-402.71,-123.7,161.56,248.54,-536.44
bok_choi,Antioxidants,20,0.05882544010537172,0.36647821465944264,0.45183408469303976,0.05083431506028069,0.9976,0.7561,0.9558,0.0979,0.0505,0.4412,0.0688,-151.7394378330887,1124.7081621160266,-402.71196191457767,-123.70209360612185,161.55800187612584,248.54283918520062,-536.440291335715
spinach,BQI,11,-0.5739595107601327,0.8531817402237325,0.4282206526910115,0.3704556555651466,0.6599,0.3604,0.4192,0.9901,0.6041,0.1768,0.3083,0.43,-0.13,0.13,-0,0,-0.02,0.03
spinach,BQI,11,-0.5739595107601327,0.8531817402237325,0.4282206526910115,0.3704556555651466,0.6599,0.3604,0.4192,0.9901,0.6041,0.1768,0.3083,0.4254963607599774,-0.13456747928958432,0.12579788047460547,-2.1574758390270902e-5,0.0011002997695874072,-0.016596973753155782,0.034200185130511936
lettuce,BQI,18,0.11244319278244796,0.3115569483226379,0.3842301601177358,0.11946514764778915,0.7594,0.7107,0.1412,0.0612,0.3528,0.0813,0.6955,-0.2,-0.03,0.16,-0,0,-0.01,-0
lettuce,BQI,18,0.11244319278244796,0.3115569483226379,0.3842301601177358,0.11946514764778915,0.7594,0.7107,0.1412,0.0612,0.3528,0.0813,0.6955,-0.20039461084994456,-0.02580067589255878,0.16428097355194773,-0.004146290814556396,0.0026100637732396565,-0.005583809997440296,-0.0010171369046907458
peppers,BQI,62,0.22266046289472474,0.0025204905321365434,0.3800722565171609,8.32739799223603e-5,0.2177,0.7036,0.0064,0.0477,0.0378,0.0035,0.8836,-0.42,-0.02,0.16,-0,-0,0.01,0
peppers,BQI,62,0.22266046289472474,0.0025204905321365434,0.3800722565171609,8.32739799223603e-5,0.2177,0.7036,0.0064,0.0477,0.0378,0.0035,0.8836,-0.42242049184111646,-0.019006981155886504,0.16464098344766873,-0.0011097956876530274,-0.0010485507845060223,0.005314051406479901,7.143500334556124e-4
zucchini,Brix,74,-0.008336947651676585,0.5006872429970148,0.36535953205531235,1.8182480956419056e-5,0.0196,0.7376,8e-4,0.248,0.0015,0.1226,0.203,-9.99,-0.2,2.55,-0.01,0.03,0.14,-0.18
zucchini,Brix,74,-0.008336947651676585,0.5006872429970148,0.36535953205531235,1.8182480956419056e-5,0.0196,0.7376,8e-4,0.248,0.0015,0.1226,0.203,-9.9944789583618725,-0.19829020045912793,2.5529968630307662,-0.007471815203468618,0.025348223135614446,0.14129997348486284,-0.18378208237827226
swiss_chard,BQI,29,0.031717800901327475,0.3661181082755023,0.3587520328654391,0.029180702397225033,0.9258,0.1941,0.6948,0.0564,0.9205,0.0226,0.0052,-0.05,0.09,-0.03,0,0,-0.01,0.02
swiss_chard,BQI,29,0.031717800901327475,0.3661181082755023,0.3587520328654391,0.029180702397225033,0.9258,0.1941,0.6948,0.0564,0.9205,0.0226,0.0052,-0.04766439600750722,0.08802826834863656,-0.03292492471308476,0.0016940585090861498,1.570387974892973e-4,-0.006884996364899028,0.022499752220219008
potato,Antioxidants,232,0.13146187013134158,1.1424178953944875e-6,0.3270085065919488,1.3322676295501878e-15,0.8236,0.1062,0.3832,0,0,0.6689,0.1674,48.17,47.77,-27.81,-1.31,-2.07,0.79,4.5
potato,Antioxidants,232,0.13146187013134158,1.1424178953944875e-6,0.3270085065919488,1.3322676295501878e-15,0.8236,0.1062,0.3832,0,0,0.6689,0.1674,48.16759303103929,47.7738202455731,-27.809942347275683,-1.3123631006127934,-2.0747584002694843,0.7877848241693617,4.496949957231313
carrot,Polyphenols,82,0.05744575118323114,0.10598487600420259,0.31892643838237866,3.233541174518795e-5,0.0257,0.013,0.8833,0.9339,0.7355,0.1309,0.004,85.5,-12.34,0.79,-0.01,0.03,1.1,-3.4
carrot,Polyphenols,82,0.05744575118323114,0.10598487600420259,0.31892643838237866,3.233541174518795e-5,0.0257,0.013,0.8833,0.9339,0.7355,0.1309,0.004,85.50468401373087,-12.339122481344129,0.7872832454903435,-0.006627408262989272,0.031027515138084504,1.097453335733925,-3.4005325107103546
lettuce,Antioxidants,30,0.044045515164332305,0.3307977251201949,0.31511177290926806,0.039884383192353434,0.2598,0.0372,0.3276,0.3743,0.0872,0.532,0.1921,13795.77,-3770.29,1875.21,-21.49,-45.66,31.29,-107.29
lettuce,Antioxidants,30,0.044045515164332305,0.3307977251201949,0.31511177290926806,0.039884383192353434,0.2598,0.0372,0.3276,0.3743,0.0872,0.532,0.1921,13795.774035455068,-3770.2938830493567,1875.210123897168,-21.48998482716173,-45.660895537972394,31.292496771422996,-107.2877102157534
zucchini,Polyphenols,73,0.12329731547940526,0.02143574655837266,0.30604762994930534,1.662670944211353e-4,0,0.012,4e-4,0.2128,0.9043,0.1294,0.2436,-331.45,23.62,39.83,0.12,-0.01,2.28,-2.65
zucchini,Polyphenols,73,0.12329731547940526,0.02143574655837266,0.30604762994930534,1.662670944211353e-4,0,0.012,4e-4,0.2128,0.9043,0.1294,0.2436,-331.4544330595639,23.622220913980374,39.82723460382879,0.1166847355710232,-0.014799733398223686,2.284127721780719,-2.6541036601490315
beet,Antioxidants,94,0.061907495676542856,0.0710429622107871,0.29918505054475153,1.499388396764001e-5,0.1155,0.8094,0.2781,0.3994,1e-4,0.0387,0.0022,38926.8,-1184.43,-5414.88,41.54,239.17,-349.29,349.41
beet,Antioxidants,94,0.061907495676542856,0.0710429622107871,0.29918505054475153,1.499388396764001e-5,0.1155,0.8094,0.2781,0.3994,1e-4,0.0387,0.0022,38926.79963518959,-1184.4256979079018,-5414.8765905663595,41.5422031362431,239.17204623975226,-349.29429073494254,349.41266213835803
beet,BQI,79,0.040221628408592336,0.1760422591991173,0.2779289261077026,2.1699649449802294e-4,0.3582,0.7757,0.8031,0.4227,6e-4,0.5329,7e-4,0.26,0.02,-0.01,0,0,0,0
beet,BQI,79,0.040221628408592336,0.1760422591991173,0.2779289261077026,2.1699649449802294e-4,0.3582,0.7757,0.8031,0.4227,6e-4,0.5329,7e-4,0.26188479750870935,0.016972025252661577,-0.013438540306686257,4.894527032023294e-4,0.002494822993850299,0.0015606406246136298,0.004609112757752672
kale,Antioxidants,49,0.09089073260007774,0.12245914613746844,0.2564142708800303,0.011466657344656017,0.0482,0.0025,0.4404,0.4333,0.523,0.374,0.039,-49115.8,8051.61,2906,-29.86,-46.15,94.91,-548.77
kale,Antioxidants,49,0.09089073260007774,0.12245914613746844,0.2564142708800303,0.011466657344656017,0.0482,0.0025,0.4404,0.4333,0.523,0.374,0.039,-49115.800161770894,8051.605991785177,2905.9963173620986,-29.860003446842086,-46.15109407729236,94.91188643026985,-548.7679986749504
kale,Brix,31,-0.05040722138567877,0.6081219225990273,0.2124773603567992,0.09800421186281105,0.1227,0.4967,0.0138,0.5308,0.1574,0.3374,0.2644,27.89,1.96,-5.14,0.01,-0.06,-0.08,0.31
kale,Brix,31,-0.05040722138567877,0.6081219225990273,0.2124773603567992,0.09800421186281105,0.1227,0.4967,0.0138,0.5308,0.1574,0.3374,0.2644,27.885902045768663,1.9642858001965209,-5.138100285854873,0.013751250087175626,-0.06145419784457488,-0.08235367811229616,0.30678919733261967
zucchini,BQI,73,0.012467709718155917,0.3430011861870871,0.1985730731240073,0.005108751881465201,0.6379,0.2965,0.555,0.032,0.4083,0.4025,0.7004,-0.17,0.05,0.03,0,-0,0.01,0
zucchini,BQI,73,0.012467709718155917,0.3430011861870871,0.1985730731240073,0.005108751881465201,0.6379,0.2965,0.555,0.032,0.4083,0.4025,0.7004,-0.16727086912249958,0.05195386015684686,0.032506669473311774,0.0011008810967406463,-5.627614394257312e-4,0.006199801463450813,0.004339184679019011
carrot,BQI,68,0.07396610000546999,0.09664097049081877,0.1831943685785835,0.01180311408473056,3e-4,0.0535,0.3691,0.2735,0.3558,0.7084,0.7634,1.22,-0.1,-0.05,0,-0,-0,-0
carrot,BQI,68,0.07396610000546999,0.09664097049081877,0.1831943685785835,0.01180311408473056,3e-4,0.0535,0.3691,0.2735,0.3558,0.7084,0.7634,1.2178484332780126,-0.096069760021181,-0.04810841589508618,7.789897468437031e-4,-8.422264298511325e-4,-0.0020497716751735604,-0.002798061313604784
peppers,Polyphenols,66,-0.04087972484357261,0.7490157893749501,0.17643526914582564,0.015061488181543181,0.7514,0.6196,0.2756,0.2543,0.3776,0.6189,0.0016,-60.07,-14.51,36.56,-0.33,0.26,-0.47,9
peppers,Polyphenols,66,-0.04087972484357261,0.7490157893749501,0.17643526914582564,0.015061488181543181,0.7514,0.6196,0.2756,0.2543,0.3776,0.6189,0.0016,-60.0741404916817,-14.511310584856583,36.55930438045821,-0.32825767654386545,0.26215787270624896,-0.46811223474342334,8.997741092358606
beet,Brix,83,0.014264656092094596,0.3167376692241861,0.14914743645726347,0.011779441286101311,0.0067,0.7183,0.4485,0.1108,0.0168,0.5597,0.0159,24.13,-0.76,-1.44,-0.03,0.06,-0.05,-0.1
beet,Brix,83,0.014264656092094596,0.3167376692241861,0.14914743645726347,0.011779441286101311,0.0067,0.7183,0.4485,0.1108,0.0168,0.5597,0.0159,24.130977911078066,-0.7611846471317222,-1.44179384762932,-0.0323162084072755,0.063392181554607,-0.04801545057669843,-0.09944571655699552
potato,BQI,226,0.0363269376544515,0.02800503247596442,0.11815514755253576,4.9417795158657185e-5,0.3262,0.0156,0.0277,0.0512,0.841,0.0039,5e-4,0.32,0.11,-0.1,0,0,0.01,-0.01
potato,BQI,226,0.0363269376544515,0.02800503247596442,0.11815514755253576,4.9417795158657185e-5,0.3262,0.0156,0.0277,0.0512,0.841,0.0039,5e-4,0.3201249938880564,0.11256889214629073,-0.10425465405628469,9.167741965104115e-4,1.224050787258102e-4,0.007247949062986164,-0.011328105122819739
swiss_chard,Antioxidants,45,0.009618488876598885,0.39669243945759136,0.1166423263327131,0.1287406053723814,0.1229,0.9712,0.1813,0.9926,0.4306,0.1042,0.1718,5722.66,16.5,-848.29,-0.05,-8.69,-41.61,86.98
swiss_chard,Antioxidants,45,0.009618488876598885,0.39669243945759136,0.1166423263327131,0.1287406053723814,0.1229,0.9712,0.1813,0.9926,0.4306,0.1042,0.1718,5722.65615913186,16.501985560837674,-848.2938276341997,-0.05413670899134244,-8.686422765061923,-41.61412812368698,86.98343824421029
carrot,Brix,76,-0.015608838927575919,0.5673091148681348,0.10118640693322856,0.057919990589916925,1e-4,0.7383,0.0205,0.0903,0.4414,0.2906,0.986,15.26,0.18,-1.41,-0.01,0.01,-0.06,0
carrot,Brix,76,-0.015608838927575919,0.5673091148681348,0.10118640693322856,0.057919990589916925,1e-4,0.7383,0.0205,0.0903,0.4414,0.2906,0.986,15.261260934011245,0.1814164722976161,-1.4107797094497523,-0.012754120901535564,0.00799086095740403,-0.06349047307475024,0.001727573851730299
zucchini,Antioxidants,74,0.03182128054380784,0.22769520118200137,0.09998917246299499,0.06436356842521285,0.0973,0.6826,0.0508,0.3213,0.5797,0.3727,0.2194,-564.64,19.9,105.27,-0.47,-0.35,-5.73,12.57
zucchini,Antioxidants,74,0.03182128054380784,0.22769520118200137,0.09998917246299499,0.06436356842521285,0.0973,0.6826,0.0508,0.3213,0.5797,0.3727,0.2194,-564.6441179824955,19.9003125558393,105.26882364639273,-0.4650593895623736,-0.3466980821875162,-5.731205632473921,12.56702722610672
potato,Brix,229,0.032221418809170954,0.03838054587642126,0.09773180777606338,2.875665106180092e-4,0,0.3453,0.0049,0.1786,0.2657,0.0025,7e-4,16.8,-0.48,-1.53,0.01,-0.01,0.09,-0.13
potato,Brix,229,0.032221418809170954,0.03838054587642126,0.09773180777606338,2.875665106180092e-4,0,0.3453,0.0049,0.1786,0.2657,0.0025,7e-4,16.79944240590948,-0.478281805632613,-1.5254504150667751,0.007588921383787932,-0.007827326273604707,0.0861642204135786,-0.1268408314316498
potato,Polyphenols,232,0.01388916269148599,0.16539924878463053,0.08452809893931112,8.227568997267731e-4,0.6232,0.4379,0.5392,0.6109,0.7638,0.0042,0.1677,-37.05,8.36,6.6,0.05,-0.04,-1.72,-1.04
potato,Polyphenols,232,0.01388916269148599,0.16539924878463053,0.08452809893931112,8.227568997267731e-4,0.6232,0.4379,0.5392,0.6109,0.7638,0.0042,0.1677,-37.04560855402978,8.361461508215086,6.600621643509308,0.05100648043328698,-0.042125701067786875,-1.7192433987268676,-1.044165897032966
lettuce,Brix,29,-0.11948757881032845,0.8001255887618617,0.0790717250319447,0.29775421828592363,0.7257,0.5325,0.5734,0.0384,0.0557,0.1806,0.3794,3.28,-0.84,0.86,0.04,-0.04,0.05,-0.03
lettuce,Brix,29,-0.11948757881032845,0.8001255887618617,0.0790717250319447,0.29775421828592363,0.7257,0.5325,0.5734,0.0384,0.0557,0.1806,0.3794,3.275874928090727,-0.838108496053515,0.856028129463718,0.037946121990023514,-0.0412142443146474,0.04586662955515752,-0.033593144078257954
spinach,Brix,18,0.17591291745608795,0.23489787120534966,0.0726174816699211,0.4014141176635835,0.702,0.7737,0.8706,0.0534,0.1565,0.2178,0.4573,7.92,-0.97,0.43,-0.14,0.07,0.56,0.8
spinach,Brix,18,0.17591291745608795,0.23489787120534966,0.0726174816699211,0.4014141176635835,0.702,0.7737,0.8706,0.0534,0.1565,0.2178,0.4573,7.915168705327649,-0.9736083555108144,0.4332371962964988,-0.1350612809606196,0.07131795707381249,0.5613128596973678,0.8033665706527805
carrot,Antioxidants,81,-0.03965923765456769,0.8128187562251918,0.06445527366249215,0.12048898359305238,0.0471,0.5081,0.1353,0.7755,0.7466,0.0238,0.2311,539.81,-23.13,-57.58,0.15,-0.22,-11.24,8.99
carrot,Antioxidants,81,-0.03965923765456769,0.8128187562251918,0.06445527366249215,0.12048898359305238,0.0471,0.5081,0.1353,0.7755,0.7466,0.0238,0.2311,539.8055499285286,-23.13403810183575,-57.58165905585389,0.1491791256187237,-0.22084461465893354,-11.23670548517595,8.98907693170939
