"Crop, Sodium (noisy)","Crop, Magnesium (noisy)","Crop, Aluminum","Crop, Silicon","Crop, Phosphorous","Crop, Sulfur","Crop, Chlorine","Crop, Potassium","Crop, Calcium","Crop, Manganese","Crop, Iron","Crop, Nickel","Crop, Copper","Crop, Zinc","Crop, Arsenic","Crop, Selenium","Crop, Molybdenum","Crop, Lead"
7.4,9.18,0.21,2.06,19.75,3.73,28.76,207.74,12.83,0.24,0.31,0.03,0.02,0.19,0,0.01,-0,-0
8.16,10.44,0.24,1.78,21.51,14.07,46.61,183.33,17.93,0.22,0.24,0.04,0.02,0.16,0,0.01,0,0
10.11,12.19,0.2,1.93,20.42,6.23,29.81,171.17,13.84,0.23,0.34,0.02,0.03,0.17,0,0.01,0,-0
9.13,-0.16,0.24,1.58,20.19,11.85,40.75,169.72,13.63,0.21,0.21,0.02,0.04,0.17,0,0.01,-0.01,-0
-2.2,17.53,0.26,1.67,23.17,16.7,29.1,191.26,14.48,0.24,0.25,0.02,0.05,0.13,0,0.01,-0.01,-0
-2.91,10.56,0.25,0.81,20.56,12.27,23.7,125.24,7.19,0.25,0.25,0,0.06,0.13,0,0.01,-0,-0
2.57,11.08,0.22,0.83,21.08,10.53,18.94,109.84,7.45,0.18,0.03,0.02,0.05,0.12,0,0,-0.01,-0
-13.4,14.16,0.26,0.74,20.86,14.59,30.77,139.96,10,0.11,-0.22,0.02,0.03,0.12,0,0.01,-0,0
2.18,9.99,0.23,1.33,23.92,11.28,20.86,151.29,9.62,0.18,0.06,0.03,0.04,0.12,0,0.01,-0.01,-0
4.98,10.04,0.21,1.39,25.67,13.83,15.47,138.35,21.36,0.2,0.57,0.02,0.05,0.19,0,0.01,0,-0
5.54,6.38,0.22,1.6,23.83,12.74,14.52,156.56,16.17,0.24,0.78,0.03,0.04,0.22,0,0.01,-0,0
13.78,2.45,0.21,1.45,21.3,10.59,39.49,127.62,11.81,0.24,0.85,0.03,0.03,0.29,0,0.01,0.01,-0
14.35,9,0.22,1.43,22.29,12.26,41.68,135.96,14.55,0.18,0.19,0.03,0.03,0.14,0,0.01,0,0
3.8,13.48,0.22,1.55,20.44,9.19,15.66,160.02,9.57,0.23,0.26,0.02,0.05,0.14,0,0.01,-0.01,0
4.43,9.87,0.2,2.03,20.13,5.99,17.82,187.77,9.03,0.25,0.47,0.02,0.03,0.19,0,0.01,0.01,-0
4.17,9.13,0.19,1.77,21.62,6.12,5.92,106.85,8.37,0.25,0.33,0.02,0.03,0.14,0,0.01,0,0
7.1,14.59,0.19,1.77,21.03,7.59,16.31,123.98,11.56,0.25,0.37,0.01,0.04,0.14,0,0.01,-0.01,0
5.98,10.56,0.22,1.33,22.06,11.67,23.2,147.06,9.16,0.17,0.01,0.04,0.03,0.1,0,0.01,-0.01,-0
0.92,22.52,0.24,2.1,30.51,17.36,21.5,225.56,15.98,0.2,0.19,0.04,0.03,0.16,0,0.01,-0.01,-0
4.86,10.52,0.19,1.87,20.81,5.5,9,155.75,11.95,0.25,0.35,0.02,0.03,0.16,0,0.01,-0.01,-0
4.12,8.31,0.22,1.65,20.74,10.35,16.52,163.77,10.51,0.2,0.16,0.03,0.04,0.16,0,0.01,-0,-0
3.17,8.86,0.2,1.97,20.17,6.35,10.18,177.58,10.87,0.27,0.45,0.01,0.04,0.18,0,0.01,-0.01,-0
2.71,19.1,0.23,1.81,21.77,17.96,21.62,186.56,15.02,0.23,0.37,0.02,0.04,0.18,0,0.01,-0,0
2.44,17.38,0.21,2.21,18.72,7.9,16.95,237.22,19.92,0.25,0.42,0.02,0.03,0.21,0,0.01,-0.01,-0
3.47,13.07,0.2,2.03,19.63,6.21,11.75,194.53,14.28,0.24,0.39,0.01,0.04,0.21,0,0.01,-0,-0
3.83,11.69,0.23,1.76,21.51,12.84,17.77,187.47,14.41,0.21,0.19,0.04,0.03,0.16,0,0.01,-0,-0
4.58,8.26,0.22,1.72,20.84,11.32,20.66,175.49,15.19,0.22,0.23,0.04,0.03,0.15,0,0.01,0,-0
5.64,5.49,0.19,1.9,21.33,5.16,14.09,161.07,12.68,0.25,0.39,0.01,0.03,0.16,0,0.01,-0,0
4.35,11.69,0.19,1.93,20.15,6.3,8.16,171.35,14.46,0.23,0.4,0.02,0.03,0.15,0,0.01,0,0
0.45,15.22,0.24,1.52,23.71,17.43,18.12,166.63,17.58,0.18,0.25,0.03,0.04,0.15,0,0.01,-0,-0
