SampleID,FilePath,MeasurementDate,ProcessingDate,SampleType,CropType,Mg_Concentration,Al_Concentration,Si_Concentration,P_Concentration,S_Concentration,Cl_Concentration,K_Concentration,Ca_Concentration,Mn_Concentration,Fe_Concentration,Ni_Concentration,Cu_Concentration,Zn_Concentration,Good,StatusCode,ErrorString
,,,,,,ppm,ppm,ppm,ppm,ppm,ppm,ppm,ppm,ppm,ppm,ppm,ppm,ppm,,,
background_compression-tool_1-02439,Documents\EWT_Consulting_OurSci_GregAustic\2021_XRF\2021-07-28_compression-testing\background_compression-tool_1-02439.pdz,28/07/21 12:57,29/07/21 06:39,all,kale+beet,103.238041059587,12.3118506645333,3013.08921939522,0,-146.752424958336,-107.376778217738,0.519798646428218,1530.56133687792,24.606318322848,133.090003381037,13.9417738812806,12.76922594656,37.0207516296437,0,3  3  4,"P-K < 50 cps, K-K < 1500 cps, Ti-K > 100 cps"
background_compression-tool_2-02476,Documents\EWT_Consulting_OurSci_GregAustic\2021_XRF\2021-07-28_compression-testing\background_compression-tool_2-02476.pdz,28/07/21 14:40,29/07/21 06:39,all,kale+beet,875.765057311522,17.0774393664608,-447.036569750827,0,-417.123421171857,-296.030108684183,0,1650.16658589726,30.0684245023119,223.63611095144,13.9453466297313,14.4728108674313,28.9235162808614,0,3  3  3  4  3  5  6,"P-K < 50 cps, S-K < 100 cps, K-K < 1500 cps, Ti-K > 100 cps, valid counts < 1000000 counts, detector temperature != 202, total time <28 s"
background_compression-tool_2-02477,Documents\EWT_Consulting_OurSci_GregAustic\2021_XRF\2021-07-28_compression-testing\background_compression-tool_2-02477.pdz,28/07/21 14:40,29/07/21 06:39,all,kale+beet,25.6474641586191,10.3313167755388,-550.360862829319,0,-413.406673910794,-228.57344418546,0,1600.80228875407,23.0348906246164,207.399218983959,13.379179592381,12.264463438849,30.410367465564,0,3  3  3  4  3  6,"P-K < 50 cps, S-K < 100 cps, K-K < 1500 cps, Ti-K > 100 cps, valid counts < 1000000 counts, total time <28 s"
beet_11-1778_1-02463,Documents\EWT_Consulting_OurSci_GregAustic\2021_XRF\2021-07-28_compression-testing\beet_11-1778_1-02463.pdz,28/07/21 14:16,29/07/21 06:39,all,kale+beet,3599.14107966704,21.6302945630906,2699.3906049106,889.950277674925,838.230992100956,2216.19495860847,13779.1995264031,3175.73406682848,74.5774660008188,120.042545408054,8.63933532687304,13.4524199918507,107.582507385635,1,,
beet_11-1778_2-02464,Documents\EWT_Consulting_OurSci_GregAustic\2021_XRF\2021-07-28_compression-testing\beet_11-1778_2-02464.pdz,28/07/21 14:17,29/07/21 06:39,all,kale+beet,4556.63175785485,25.1352176192537,2659.82039021815,888.116412354972,854.866286335866,2165.96605953785,13822.2669529565,3178.39744086238,82.0825563220643,121.741365746941,8.99472434856218,12.3969383760222,101.501773091771,1,,
beet_11-1778_3-02465,Documents\EWT_Consulting_OurSci_GregAustic\2021_XRF\2021-07-28_compression-testing\beet_11-1778_3-02465.pdz,28/07/21 14:17,29/07/21 06:39,all,kale+beet,4484.16994722421,22.7953316590439,2657.79284763559,873.14561138489,864.831184519784,2181.85542942284,13856.1323147928,3204.51624807535,71.2031338813419,117.770726504985,7.67045465722219,11.2390324242326,102.535006834648,1,,
beet_11-265_1-02469,Documents\EWT_Consulting_OurSci_GregAustic\2021_XRF\2021-07-28_compression-testing\beet_11-265_1-02469.pdz,28/07/21 14:28,29/07/21 06:39,all,kale+beet,2687.61182143409,38.1778863115964,2253.4393471435,1917.03697540151,1115.26471863731,11335.5829818396,27042.1616184678,342.676406317143,60.048202170338,71.616327095018,4.34350984503866,10.2542483607099,61.1317345914324,1,,
beet_11-265_2-02470,Documents\EWT_Consulting_OurSci_GregAustic\2021_XRF\2021-07-28_compression-testing\beet_11-265_2-02470.pdz,28/07/21 14:28,29/07/21 06:39,all,kale+beet,3358.17364420857,42.4935987828229,2204.37263264069,1878.03433734585,1111.10497388818,11346.0543802701,27123.5636755791,281.376076141756,70.0894484214218,78.9054494285763,5.60059120826697,11.9247865986136,66.8317106083591,1,,
beet_11-265_3-02471,Documents\EWT_Consulting_OurSci_GregAustic\2021_XRF\2021-07-28_compression-testing\beet_11-265_3-02471.pdz,28/07/21 14:29,29/07/21 06:39,all,kale+beet,3202.72400823511,38.8100197248247,2275.05319470424,1850.39961087469,1135.30716767228,11231.6187109826,27017.6052784573,275.772406267434,61.8566831461643,77.3836658096078,5.15119452757667,10.8541879548973,64.6722706131306,1,,
beet_11-2739_1-02472,Documents\EWT_Consulting_OurSci_GregAustic\2021_XRF\2021-07-28_compression-testing\beet_11-2739_1-02472.pdz,28/07/21 14:33,29/07/21 06:39,all,kale+beet,3124.52216174973,55.9714128817865,3184.31075786107,4302.7280677639,1573.10350646347,5282.64799186001,41817.5098463417,593.698871880758,55.5987119317018,81.9324723956312,3.71586372777725,9.69107186773699,37.776979916172,1,,
beet_11-2739_2-02473,Documents\EWT_Consulting_OurSci_GregAustic\2021_XRF\2021-07-28_compression-testing\beet_11-2739_2-02473.pdz,28/07/21 14:34,29/07/21 06:39,all,kale+beet,2889.05894995057,61.219552980825,3424.04794582038,4349.70940591601,1590.23294391504,5234.39476630053,41868.3314224654,610.654494921425,78.0496062116341,89.8830730644124,4.14463761174925,10.4607084907606,37.6736394397727,1,,
beet_11-2739_3-02474,Documents\EWT_Consulting_OurSci_GregAustic\2021_XRF\2021-07-28_compression-testing\beet_11-2739_3-02474.pdz,28/07/21 14:34,29/07/21 06:39,all,kale+beet,3157.9991064654,56.2028508774702,3409.56091256566,4325.00229597103,1580.85778851826,5265.40230265893,41838.1288436562,596.878164895465,62.60816318937,88.2506117981695,4.32138510903072,9.70114046084496,34.9317638642018,1,,
beet_11-3636_1-02466,Documents\EWT_Consulting_OurSci_GregAustic\2021_XRF\2021-07-28_compression-testing\beet_11-3636_1-02466.pdz,28/07/21 14:21,29/07/21 06:39,all,kale+beet,2715.59216905101,28.2125629775227,2257.08817959145,2221.31831043753,959.070037184761,4535.23423119187,18737.0590760083,1775.81149199742,84.7987801591778,117.767205706634,7.69876018499477,10.9394560027349,79.2861037899155,1,,
beet_11-3636_2-02467,Documents\EWT_Consulting_OurSci_GregAustic\2021_XRF\2021-07-28_compression-testing\beet_11-3636_2-02467.pdz,28/07/21 14:22,29/07/21 06:39,all,kale+beet,2671.22796277464,32.3822054152554,2514.37335660259,2235.88113567766,968.27788964018,4516.6299511801,18821.4541194852,1762.46122675332,80.2501496850971,117.884444528765,7.56766435030367,11.8055060711169,82.7967629125547,1,,
beet_11-3636_3-02468,Documents\EWT_Consulting_OurSci_GregAustic\2021_XRF\2021-07-28_compression-testing\beet_11-3636_3-02468.pdz,28/07/21 14:23,29/07/21 06:39,all,kale+beet,2514.5714840263,29.8878571944326,2460.73676679969,2361.16424481318,944.06612248643,4519.48024870164,18748.93004488,1764.56076317769,92.4018903466041,124.739284179984,7.41750015339246,11.2623365159172,81.6834718640875,1,,
beet_11-900_1-02460,Documents\EWT_Consulting_OurSci_GregAustic\2021_XRF\2021-07-28_compression-testing\beet_11-900_1-02460.pdz,28/07/21 14:09,29/07/21 06:39,all,kale+beet,2468.79957822273,26.0903368918703,2635.84485772883,2089.13673790896,718.512939085801,682.202250866738,16293.2749647258,933.838538492263,55.9998907556406,109.360501586942,8.56969611384756,12.2084761525247,39.8292480182254,1,,
beet_11-900_2-02461,Documents\EWT_Consulting_OurSci_GregAustic\2021_XRF\2021-07-28_compression-testing\beet_11-900_2-02461.pdz,28/07/21 14:10,29/07/21 06:39,all,kale+beet,2750.06133211956,25.2653726287319,2965.14534996653,2126.03308587483,742.339162217998,788.336895297801,16438.4045958658,919.682144743424,65.1523217445799,117.807563994613,8.29382952906106,12.591540348465,39.4024800502702,1,,
beet_11-900_3-02462,Documents\EWT_Consulting_OurSci_GregAustic\2021_XRF\2021-07-28_compression-testing\beet_11-900_3-02462.pdz,28/07/21 14:11,29/07/21 06:39,all,kale+beet,2620.72684657287,27.0773368495613,2778.97022365973,2122.68394652308,755.108338375098,780.217388078922,16512.4029611644,912.60692352381,46.0259620615591,105.125385254229,8.10199372413124,11.4957910776788,39.5063008938056,1,,
kale_12-277_1-02443,Documents\EWT_Consulting_OurSci_GregAustic\2021_XRF\2021-07-28_compression-testing\kale_12-277_1-02443.pdz,28/07/21 13:17,29/07/21 06:39,all,kale+beet,7212.09733526867,45.955732333861,3639.26483230548,3612.51784425581,5812.6439990407,4591.98714193609,25599.7472055454,22917.421348208,57.7551615998621,179.671166133206,5.0084023444312,6.95536828017446,36.761804541008,1,,
kale_12-277_2-02444,Documents\EWT_Consulting_OurSci_GregAustic\2021_XRF\2021-07-28_compression-testing\kale_12-277_2-02444.pdz,28/07/21 13:19,29/07/21 06:39,all,kale+beet,6618.05079082679,45.5583034752378,3748.75999278982,3605.24821500324,5791.87062331581,4620.23160944843,25630.0031311076,22939.6159133834,68.4286713720898,183.73526320476,4.89560400363983,7.79395449842988,36.5875983810173,1,,
kale_12-277_3-02445,Documents\EWT_Consulting_OurSci_GregAustic\2021_XRF\2021-07-28_compression-testing\kale_12-277_3-02445.pdz,28/07/21 13:20,29/07/21 06:39,all,kale+beet,6924.35252787122,49.1948022304905,3798.49575668681,3658.71267530335,5873.50641601482,4602.32899829502,25618.4933391925,22893.9695847485,70.1315278778617,186.95743456099,5.92021701976449,7.77296796012217,33.8856042729635,1,,
kale_12-279_1-02453,Documents\EWT_Consulting_OurSci_GregAustic\2021_XRF\2021-07-28_compression-testing\kale_12-279_1-02453.pdz,28/07/21 13:44,29/07/21 06:39,all,kale+beet,5442.34662763955,40.0025105334242,3915.44259963361,4033.63812080026,7296.26204438326,3238.3100562907,25863.2806269336,19133.1195953582,55.7539939535376,180.267426672201,5.04959155648696,6.6271379442352,37.9403597971519,1,,
kale_12-279_2-02454,Documents\EWT_Consulting_OurSci_GregAustic\2021_XRF\2021-07-28_compression-testing\kale_12-279_2-02454.pdz,28/07/21 13:45,29/07/21 06:39,all,kale+beet,6040.81261930354,43.0971412397388,3799.29771109117,4037.4518534903,7291.20683720548,3308.96598219155,25833.9925273587,19053.0696292245,64.7627581046974,178.448095977814,5.32231206832292,8.38641409630229,37.9754938669255,1,,
kale_12-279_3-02455,Documents\EWT_Consulting_OurSci_GregAustic\2021_XRF\2021-07-28_compression-testing\kale_12-279_3-02455.pdz,28/07/21 13:46,29/07/21 06:39,all,kale+beet,6284.41609833781,47.2082013382719,3985.02247231665,4071.34565302945,7229.6577509561,3292.28599600771,25839.2532431455,18979.5279342095,64.7115822632801,181.871339463323,6.3066352597337,8.99336821706559,42.4896447557349,1,,
kale_12-286_1-02456,Documents\EWT_Consulting_OurSci_GregAustic\2021_XRF\2021-07-28_compression-testing\kale_12-286_1-02456.pdz,28/07/21 14:01,29/07/21 06:39,all,kale+beet,6054.49957635649,38.9416935911095,4594.67739563127,3400.15230394938,5933.21878995232,2371.3091602653,20054.8199845249,23600.4205821117,61.9119798855323,197.317120631931,6.19631760864596,7.36069164227137,34.8697742038496,1,,
kale_12-286_2-02457,Documents\EWT_Consulting_OurSci_GregAustic\2021_XRF\2021-07-28_compression-testing\kale_12-286_2-02457.pdz,28/07/21 14:01,29/07/21 06:39,all,kale+beet,6016.06728404207,39.9909178175207,4403.51269091948,3322.62013342894,5790.02141694719,2383.91490648028,20117.1521857468,23484.7240473336,69.0258533367779,197.85959417946,6.69882516022357,6.78510995652701,33.2643711044849,1,,
kale_12-286_3-02458,Documents\EWT_Consulting_OurSci_GregAustic\2021_XRF\2021-07-28_compression-testing\kale_12-286_3-02458.pdz,28/07/21 14:02,29/07/21 06:39,all,kale+beet,6510.37996714645,41.2694420130524,4261.84044859238,3392.40407689955,5829.67249394183,2413.5210563285,20131.5661246324,23470.8136004144,57.9424838730893,197.076285883013,5.88984681757086,8.74818553945953,40.2796418883841,1,,
kale_12-290_1-02446,Documents\EWT_Consulting_OurSci_GregAustic\2021_XRF\2021-07-28_compression-testing\kale_12-290_1-02446.pdz,28/07/21 13:25,29/07/21 06:39,all,kale+beet,5544.30032718632,46.2055264833269,3939.09805247714,4816.50295489229,7975.76021285596,3956.20157796243,25003.4701252617,14584.6523014647,62.6113725752259,221.144994919621,5.01138024265895,7.77866243679852,60.3850479127879,1,,
kale_12-290_2-02447,Documents\EWT_Consulting_OurSci_GregAustic\2021_XRF\2021-07-28_compression-testing\kale_12-290_2-02447.pdz,28/07/21 13:25,29/07/21 06:39,all,kale+beet,5473.34235631619,48.3694756550941,4068.03915204736,4822.02985635252,8091.0797742377,4045.21660364313,25064.8864028688,14673.366212572,55.9447049278553,215.384961543087,4.87514455394311,8.39923169722268,59.9683440560711,1,,
kale_12-290_3-02448,Documents\EWT_Consulting_OurSci_GregAustic\2021_XRF\2021-07-28_compression-testing\kale_12-290_3-02448.pdz,28/07/21 13:26,29/07/21 06:39,all,kale+beet,4719.88835804495,48.3227269613643,3851.46312166378,4813.64606825031,7982.96180277073,4015.35577262129,25154.3540532588,14588.7504346251,60.3902419310735,224.845126841753,5.05873450950777,7.66524295861709,52.5418799105853,1,,
kale_12-296_1-02449,Documents\EWT_Consulting_OurSci_GregAustic\2021_XRF\2021-07-28_compression-testing\kale_12-296_1-02449.pdz,28/07/21 13:30,29/07/21 06:39,all,kale+beet,9346.02752029535,34.2785209607433,3963.06332853388,3598.18683438714,7478.69507251704,5182.84262428733,17989.5255378075,28760.8128064731,60.0882428901824,176.740380253483,6.7808311530475,7.21851114437813,30.5510097933359,1,,
kale_12-296_2-02450,Documents\EWT_Consulting_OurSci_GregAustic\2021_XRF\2021-07-28_compression-testing\kale_12-296_2-02450.pdz,28/07/21 13:32,29/07/21 06:39,all,kale+beet,9371.92129024535,31.912409892301,4223.41770077681,3653.16517910241,7554.89393640351,5262.22307317117,18084.0136179901,28852.0651814677,56.2025607244834,172.767161629778,6.70166437820361,7.1759524519136,29.7473936539691,1,,
kale_12-296_3-02451,Documents\EWT_Consulting_OurSci_GregAustic\2021_XRF\2021-07-28_compression-testing\kale_12-296_3-02451.pdz,28/07/21 13:33,29/07/21 06:39,all,kale+beet,8801.26796267912,31.6707953712009,4006.68553596832,3613.87221003959,7498.2101916854,5233.97288657235,18006.1665342062,28808.1480820748,62.504306639298,174.081534305502,6.46879226714637,6.77153737979811,37.7044222102979,1,,
kale_12-316_1-02441,Documents\EWT_Consulting_OurSci_GregAustic\2021_XRF\2021-07-28_compression-testing\kale_12-316_1-02441.pdz,28/07/21 13:05,29/07/21 06:39,all,kale+beet,11608.840198818,43.3539337338592,4866.67177555029,2728.01928391313,3680.16632608567,5985.60721181564,23338.0332669727,37100.5978672013,60.5873307174865,184.762894696816,5.77297219161526,6.7745074261125,22.0254087169252,1,,
kale_12-316_3-02442,Documents\EWT_Consulting_OurSci_GregAustic\2021_XRF\2021-07-28_compression-testing\kale_12-316_3-02442.pdz,28/07/21 13:07,29/07/21 06:39,all,kale+beet,12548.3643902581,40.5231131256597,4939.49145145689,2879.46303440964,3781.57274497198,5940.40555124122,23369.3592002776,37173.1856774087,65.5035081430011,185.249362990297,6.27909371504626,6.37735527221357,18.084141698637,1,,
kale_check-standard_1-02440,Documents\EWT_Consulting_OurSci_GregAustic\2021_XRF\2021-07-28_compression-testing\kale_check-standard_1-02440.pdz,28/07/21 13:00,29/07/21 06:39,all,kale+beet,3151.28645860638,52.8002418456411,6115.33720153645,3885.46586840425,10056.7238883858,6153.02666955847,25561.7948990418,17085.0287975385,110.562006308639,262.05856701905,4.48922357127274,7.50559855018759,108.46624268061,0,1,Fe > 250 ppm
kale_check-standard_2-02459,Documents\EWT_Consulting_OurSci_GregAustic\2021_XRF\2021-07-28_compression-testing\kale_check-standard_2-02459.pdz,28/07/21 14:05,29/07/21 06:39,all,kale+beet,4097.06367179503,53.8945428733827,6100.71718088537,3973.96791275609,10151.2828831461,5951.15006523827,25713.6673262674,17469.0604680335,113.461451976889,255.547015908248,4.64079869198083,7.50416633083293,114.001543690398,0,1,Fe > 250 ppm
kale_check-standard_3-02475,Documents\EWT_Consulting_OurSci_GregAustic\2021_XRF\2021-07-28_compression-testing\kale_check-standard_3-02475.pdz,28/07/21 14:37,29/07/21 06:39,all,kale+beet,3594.52250800137,53.0698064466253,5728.1864119548,3771.4660032595,9881.26652968646,5739.92585231355,25398.708947232,17674.428149402,120.252812959676,268.783723617959,4.52891238839244,6.7956197069883,112.959657028306,0,1,Fe > 250 ppm
