Type,median_10cm_organic_carbon_percentage,median_10cm_respiration_soil,max_10cm_organic_carbon_percentage,max_10cm_respiration_soil,min_10cm_organic_carbon_percentage,min_10cm_respiration_soil,range_10cm_organic_carbon_percentage,range_10cm_respiration_soil,sd_10cm_organic_carbon_percentage,sd_10cm_respiration_soil,ratio_10cm_organic_carbon_percentage,ratio_10cm_respiration_soil,median_20cm_organic_carbon_percentage,median_20cm_respiration_soil,max_20cm_organic_carbon_percentage,max_20cm_respiration_soil,min_20cm_organic_carbon_percentage,min_20cm_respiration_soil,range_20cm_organic_carbon_percentage,range_20cm_respiration_soil,sd_20cm_organic_carbon_percentage,sd_20cm_respiration_soil,ratio_20cm_organic_carbon_percentage,ratio_20cm_respiration_soil
oats,2.48,19.48,17.67,55.86,1.46,6.72,16.21,49.14,3.7847905541203715,11.160145599165086,12.102739726027398,8.3125,2.31,14.75,17.18,35.17,1.12,3.75,16.06,31.42,3.557969177213596,7.939479659250323,15.339285714285712,9.378666666666668
wheat,3.29,20.91,7.27,47.81,1.15,4.52,6.119999999999999,43.290000000000006,1.178902811007001,10.92111762878599,6.321739130434783,10.577433628318586,2.72,12.02,6.94,36.41,0.99,3.3,5.95,33.11,1.2222596441717684,7.380560509458798,7.01010101010101,11.033333333333333
