variable,oats,wheat,oats_w/o_outliers,wheat_w/o_outliers
Antioxidants_max,13158.11,6853.93,10395.66,NA
Antioxidants_median,2859.0649999999996,3255.3,2816.065,NA
Antioxidants_min,962.17,628.38,NA,NA
Antioxidants_range,12195.94,6225.55,9433.49,NA
Antioxidants_ratio,13.675452362888056,10.907301314491232,10.804390076597691,NA
Antioxidants_sd,2589.103273793283,1718.4447493005418,2355.168183534882,NA
Polyphenols_max,329.93,268.77,193.48,143.49
Polyphenols_median,91.85,106.2,NA,105.88
Polyphenols_min,18.2,27.86,NA,NA
Polyphenols_range,311.73,240.90999999999997,175.28,115.63000000000001
Polyphenols_ratio,18.12802197802198,9.647164393395549,10.63076923076923,5.150394831299354
Polyphenols_sd,45.389188724218805,38.25754515336748,43.637472941996755,32.21066984791821
produce_xrf_Al_max,73.5345159916,72.978925769400007,NA,NA
produce_xrf_Al_median,45.8304353713,49.7446677655,NA,NA
produce_xrf_Al_min,31.8450797546,32.6810732241,NA,NA
produce_xrf_Al_range,41.689436237,40.29785254530001,NA,NA
produce_xrf_Al_ratio,2.3091327312809757,2.2330639287446403,NA,NA
produce_xrf_Al_sd,9.08777731854714,9.122957880550224,NA,NA
produce_xrf_Ca_max,1518.4811165076,1729.8377747815,NA,1588.9896399931
produce_xrf_Ca_median,941.817737777,1043.3924990518,NA,1041.1231085477002
produce_xrf_Ca_min,644.685110345,505.4450739196,NA,NA
produce_xrf_Ca_range,873.7960061626001,1224.3927008619,NA,1083.5445660735
produce_xrf_Ca_ratio,2.3553841901125847,3.422405052574835,NA,3.1437434490574474
produce_xrf_Ca_sd,202.31884463161003,309.4750897179498,NA,305.01143872901326
produce_xrf_Cu_max,15.531011201,15.9891360591,NA,NA
produce_xrf_Cu_median,10.1998689661,13.5305128746,NA,NA
produce_xrf_Cu_min,4.7487291383,3.6906714528,NA,NA
produce_xrf_Cu_range,10.7822820627,12.2984646063,NA,NA
produce_xrf_Cu_ratio,3.2705616068386574,4.332310871770916,NA,NA
produce_xrf_Cu_sd,2.363737381938912,3.088907312989583,NA,NA
produce_xrf_Fe_max,165.1656704476,143.5440368943,NA,NA
produce_xrf_Fe_median,70.9060859296,85.5364557877,NA,NA
produce_xrf_Fe_min,38.4797311312,37.6232995653,NA,NA
produce_xrf_Fe_range,126.68593931640001,105.920737329,NA,NA
produce_xrf_Fe_ratio,4.292277144152937,3.815296333729612,NA,NA
produce_xrf_Fe_sd,13.537607845878426,25.734370017994642,NA,NA
produce_xrf_K_max,7932.1156932099,9805.4171911303,NA,8653.115023274
produce_xrf_K_median,4230.7314762795,5338.2299173502,NA,5313.6619990733
produce_xrf_K_min,1799.7784833613,1536.138163797,NA,NA
produce_xrf_K_range,6132.3372098486,8269.2790273333,NA,7116.976859477
produce_xrf_K_ratio,4.407273320878763,6.383160982664109,NA,5.633031733216873
produce_xrf_K_sd,1410.7151978028696,2198.401374016944,NA,2169.7505355372996
produce_xrf_Mg_max,1844.084031052,1617.3618424186,NA,NA
produce_xrf_Mg_median,759.3223605379,701.5369457086,NA,NA
produce_xrf_Mg_min,30.5909136514,37.7114733734,NA,NA
produce_xrf_Mg_range,1813.4931174006,1579.6503690452,NA,NA
produce_xrf_Mg_ratio,60.282084153037545,42.88779243399743,NA,NA
produce_xrf_Mg_sd,433.04725433380383,370.6451164671014,NA,NA
produce_xrf_Mn_max,75.4078308262,122.5885288315,NA,NA
produce_xrf_Mn_median,46.7101992102,68.242959154,NA,NA
produce_xrf_Mn_min,26.6972285607,35.7995190672,NA,NA
produce_xrf_Mn_range,48.7106022655,86.7890097643,NA,NA
produce_xrf_Mn_ratio,2.824556513600257,3.4243065835992543,NA,NA
produce_xrf_Mn_sd,9.287130835105518,21.72388148047596,NA,NA
produce_xrf_Mo_max,0.1873060934,-Inf,NA,NA
produce_xrf_Mo_median,0.11369788454999999,NA,NA,NA
produce_xrf_Mo_min,0.0374958905,Inf,NA,NA
produce_xrf_Mo_range,0.14981020290000002,-Inf,NA,NA
produce_xrf_Mo_ratio,4.99537658400192,NaN,NA,NA
produce_xrf_Mo_sd,0.061677071289658124,NA,NA,NA
produce_xrf_Na_max,298.6505337227,301.5874540607,NA,NA
produce_xrf_Na_median,230.7617580199,253.1955260521,NA,NA
produce_xrf_Na_min,118.3219060637,166.3451656693,NA,NA
produce_xrf_Na_range,180.328627659,135.2422883914,NA,NA
produce_xrf_Na_ratio,2.5240510709987882,1.8130220547573135,NA,NA
produce_xrf_Na_sd,27.981399270552416,34.66566163366354,NA,NA
produce_xrf_Ni_max,9.900820767,-Inf,NA,NA
produce_xrf_Ni_median,9.266284078950001,NA,NA,NA
produce_xrf_Ni_min,8.1121160573,Inf,NA,NA
produce_xrf_Ni_range,1.788704709700001,-Inf,NA,NA
produce_xrf_Ni_ratio,1.2204979190467038,NaN,NA,NA
produce_xrf_Ni_sd,0.7573272465063137,NA,NA,NA
produce_xrf_P_max,9494.3872860148,5255.0519155474,NA,NA
produce_xrf_P_median,3576.1120762898,3030.7911570521,NA,NA
produce_xrf_P_min,71.9577767204,98.2047956505,NA,NA
produce_xrf_P_range,9422.429509294401,5156.8471198969,NA,NA
produce_xrf_P_ratio,131.943866510861,53.51115371442295,NA,NA
produce_xrf_P_sd,1760.0485509717057,1386.3060956900122,NA,NA
produce_xrf_S_max,2929.2867601458,2248.2619835045,NA,NA
produce_xrf_S_median,1912.8350398528,1719.6809732582,NA,NA
produce_xrf_S_min,905.6372774157,952.1925708541,NA,NA
produce_xrf_S_range,2023.6494827301,1296.0694126504002,NA,NA
produce_xrf_S_ratio,3.2345032975064,2.3611421180148975,NA,NA
produce_xrf_S_sd,277.2333527528234,337.1449315584096,NA,NA
produce_xrf_Si_max,8055.2020829213,2770.703459548,5720.7017021529,NA
produce_xrf_Si_median,1846.0136895271,1612.8883507943,1826.22527965465,NA
produce_xrf_Si_min,1024.7041133945,973.1345211333,NA,NA
produce_xrf_Si_range,7030.497969526799,1797.5689384147,4695.9975887584005,NA
produce_xrf_Si_ratio,7.861002974055726,2.847194708827382,5.5827839738069756,NA
produce_xrf_Si_sd,974.6530422543975,356.9076646500105,780.1439940219449,NA
produce_xrf_Zn_max,40.7190817746,47.2993717174,NA,NA
produce_xrf_Zn_median,19.7828492737,24.0384770443,NA,NA
produce_xrf_Zn_min,0.701834763,0.2042105481,NA,NA
produce_xrf_Zn_range,40.0172470116,47.0951611693,NA,NA
produce_xrf_Zn_ratio,58.018046299880986,231.62060999041998,NA,NA
produce_xrf_Zn_sd,9.241049984450997,11.124276680505309,NA,NA
Proteins_max,17.18,14.6,NA,NA
Proteins_median,9.93,8.485,NA,NA
Proteins_min,0.7,2.79,NA,NA
Proteins_range,16.48,11.809999999999999,NA,NA
Proteins_ratio,24.542857142857144,5.232974910394265,NA,NA
Proteins_sd,3.001397882709543,2.5669503588255047,NA,NA
