explained,factor,factor_value,information_source,value,shift,crop
antioxidants,NA,NA,median,1958.23,0,bok_choi
antioxidants,cropColor,green,anova,2182.860714285714,224.63071428571402,bok_choi
antioxidants,cropColor,green purple,anova,5272.409999999999,3314.179999999999,bok_choi
antioxidants,cropColor,green white,anova,2028.257317073171,70.02731707317093,bok_choi
antioxidants,cropColor,green white yellow,anova,1912.57,-45.66000000000008,bok_choi
antioxidants,cropColor,green yellow,anova,3053.4649999999992,1095.2349999999992,bok_choi
antioxidants,cropColor,white green,anova,1459.3200000000004,-498.9099999999996,bok_choi
antioxidants,climateRegion,Central,anova,4619.413333333334,2661.183333333334,bok_choi
antioxidants,climateRegion,East North Central,anova,2043.0918000000001,84.86180000000013,bok_choi
antioxidants,climateRegion,Northeast,anova,1905.1257894736839,-53.10421052631614,bok_choi
antioxidants,climateRegion,South,anova,1817.9100000000005,-140.31999999999948,bok_choi
antioxidants,climateRegion,Southeast,anova,4638.425714285713,2680.195714285713,bok_choi
antioxidants,climateRegion,West,anova,2628.1933333333336,669.9633333333336,bok_choi
antioxidants,variety,asian delight,anova,2212.9133333333334,254.6833333333334,bok_choi
antioxidants,variety,black summer,anova,2172.913333333334,214.68333333333385,bok_choi
antioxidants,variety,green fortune,anova,2628.193333333334,669.963333333334,bok_choi
antioxidants,variety,joi_choi,anova,2460.097142857143,501.8671428571429,bok_choi
antioxidants,variety,mei_qing_choi,anova,2863.803333333334,905.5733333333342,bok_choi
antioxidants,variety,rosie,anova,5987.4450000000015,4029.2150000000015,bok_choi
antioxidants,sample_source,farm,anova,2335.4623076923076,377.2323076923076,bok_choi
antioxidants,sample_source,garden,anova,4098.818,2140.588,bok_choi
antioxidants,sample_source,store,anova,2040.690799999999,82.46079999999893,bok_choi
bqi,NA,NA,median,0.3942715862493171,0,bok_choi
bqi,cropColor,green,anova,0.3806762326570042,-0.013595353592312898,bok_choi
bqi,cropColor,green purple,anova,0.4791510871399634,0.08487950089064633,bok_choi
bqi,cropColor,green white,anova,0.35011818558916535,-0.04415340066015172,bok_choi
bqi,cropColor,green white yellow,anova,0.38576006442043737,-0.008511521828879709,bok_choi
bqi,cropColor,green yellow,anova,0.38973445663182715,-0.004537129617489921,bok_choi
bqi,cropColor,green yellow white,anova,0.5268812963842212,0.13260971013490414,bok_choi
bqi,cropColor,white green,anova,0.38034029038604505,-0.01393129586327202,bok_choi
bqi,climateRegion,Central,anova,0.5127483239343251,0.11847673768500805,bok_choi
bqi,climateRegion,East North Central,anova,0.3521618395073761,-0.04210974674194096,bok_choi
bqi,climateRegion,Northeast,anova,0.4163506704580926,0.022079084208775523,bok_choi
bqi,climateRegion,South,anova,0.5197842506541686,0.12551266440485148,bok_choi
bqi,climateRegion,Southeast,anova,0.45300669760645285,0.05873511135713577,bok_choi
bqi,climateRegion,West,anova,0.37858031991915053,-0.015691266330166542,bok_choi
bqi,variety,asian delight,anova,0.4969671336092338,0.1026955473599167,bok_choi
bqi,variety,black summer,anova,0.32461229651806517,-0.0696592897312519,bok_choi
bqi,variety,green fortune,anova,0.3785803199191505,-0.015691266330166598,bok_choi
bqi,variety,joi_choi,anova,0.41063405354521815,0.016362467295901073,bok_choi
bqi,variety,li_ren_choi,anova,0.3975967089752858,0.0033251227259687433,bok_choi
bqi,variety,mei_qing_choi,anova,0.31302556614803234,-0.08124602010128473,bok_choi
bqi,variety,rosie,anova,0.47537849317068603,0.08110690692136896,bok_choi
bqi,sample_source,farm,anova,0.40933392454838397,0.01506233829906689,bok_choi
bqi,sample_source,garden,anova,0.4395836202679131,0.045312034018596015,bok_choi
bqi,sample_source,store,anova,0.36165725247412756,-0.03261433377518952,bok_choi
brix,NA,NA,median,4.05,0,bok_choi
brix,cropColor,green,anova,4.476923076923077,0.4269230769230772,bok_choi
brix,cropColor,green purple,anova,4.4375,0.3875000000000002,bok_choi
brix,cropColor,green white,anova,3.943589743589743,-0.10641025641025692,bok_choi
brix,cropColor,green white yellow,anova,3.499999999999999,-0.5500000000000007,bok_choi
brix,cropColor,green yellow,anova,2.7499999999999996,-1.3000000000000003,bok_choi
brix,cropColor,green yellow white,anova,3.6499999999999995,-0.40000000000000036,bok_choi
brix,cropColor,white green,anova,3.1333333333333337,-0.9166666666666661,bok_choi
brix,climateRegion,Central,anova,6.9,2.8500000000000005,bok_choi
brix,climateRegion,East North Central,anova,4.057999999999999,0.007999999999999119,bok_choi
brix,climateRegion,Northeast,anova,4.5473684210526315,0.4973684210526317,bok_choi
brix,climateRegion,South,anova,2.9666666666666672,-1.0833333333333326,bok_choi
brix,climateRegion,Southeast,anova,3.9999999999999996,-0.050000000000000266,bok_choi
brix,climateRegion,West,anova,2.300000000000001,-1.7499999999999987,bok_choi
brix,variety,asian delight,anova,4.400000000000001,0.3500000000000014,bok_choi
brix,variety,black summer,anova,3.766666666666668,-0.2833333333333319,bok_choi
brix,variety,green fortune,anova,2.3000000000000003,-1.7499999999999996,bok_choi
brix,variety,joi_choi,anova,5.40909090909091,1.3590909090909102,bok_choi
brix,variety,li_ren_choi,anova,6.599999999999998,2.549999999999998,bok_choi
brix,variety,mei_qing_choi,anova,3.666666666666668,-0.38333333333333197,bok_choi
brix,variety,rosie,anova,5.333333333333334,1.283333333333334,bok_choi
brix,sample_source,farm,anova,4.442424242424242,0.39242424242424256,bok_choi
brix,sample_source,garden,anova,3.2,-0.8499999999999996,bok_choi
brix,sample_source,store,anova,4.068518518518518,0.018518518518518157,bok_choi
polyphenols,NA,NA,median,68.44,0,bok_choi
polyphenols,amendments.none,true,medians,74.79066021867821,6.350660218678215,bok_choi
polyphenols,cropColor,green,anova,101.27181818181818,32.83181818181818,bok_choi
polyphenols,cropColor,green purple,anova,86.81874999999998,18.378749999999982,bok_choi
polyphenols,cropColor,green white,anova,57.15609756097561,-11.283902439024388,bok_choi
polyphenols,cropColor,green white yellow,anova,102.84999999999998,34.40999999999998,bok_choi
polyphenols,cropColor,green yellow,anova,60.60499999999998,-7.835000000000015,bok_choi
polyphenols,cropColor,green yellow white,anova,118.34499999999997,49.90499999999997,bok_choi
polyphenols,cropColor,white green,anova,81.16666666666667,12.726666666666674,bok_choi
polyphenols,climateRegion,Central,anova,40.853333333333346,-27.586666666666652,bok_choi
polyphenols,climateRegion,East North Central,anova,73.01980392156862,4.579803921568626,bok_choi
polyphenols,climateRegion,Northeast,anova,92.65772727272726,24.21772727272726,bok_choi
polyphenols,climateRegion,South,anova,159.31000000000003,90.87000000000003,bok_choi
polyphenols,climateRegion,Southeast,anova,87.51624999999999,19.076249999999987,bok_choi
polyphenols,climateRegion,West,anova,73.34333333333336,4.903333333333364,bok_choi
polyphenols,variety,asian delight,anova,106.61333333333334,38.173333333333346,bok_choi
polyphenols,variety,black summer,anova,175.5166666666667,107.07666666666671,bok_choi
polyphenols,variety,green fortune,anova,73.34333333333335,4.90333333333335,bok_choi
polyphenols,variety,joi_choi,anova,77.162,8.722000000000008,bok_choi
polyphenols,variety,li_ren_choi,anova,60.41000000000004,-8.029999999999959,bok_choi
polyphenols,variety,mei_qing_choi,anova,136.82666666666668,68.38666666666668,bok_choi
polyphenols,variety,rosie,anova,110.99333333333337,42.55333333333337,bok_choi
polyphenols,sample_source,farm,anova,96.80049999999997,28.360499999999973,bok_choi
polyphenols,sample_source,garden,anova,73.42999999999999,4.989999999999995,bok_choi
polyphenols,sample_source,store,anova,72.90518518518519,4.465185185185192,bok_choi
antioxidants,NA,NA,median,8586.79,0,kale
antioxidants,cropColor,green,anova,9468.580807453418,881.7908074534171,kale
antioxidants,cropColor,green brown,anova,10335.189999999999,1748.3999999999978,kale
antioxidants,cropColor,green purple,anova,11021.810999999998,2435.020999999997,kale
antioxidants,cropColor,green white,anova,7659.496666666669,-927.2933333333322,kale
antioxidants,cropColor,green yellow,anova,15018.990000000005,6432.200000000004,kale
antioxidants,cropColor,green yellow brown,anova,7952.259999999998,-634.5300000000025,kale
antioxidants,cropColor,green yellow purple,anova,16611.23,8024.439999999999,kale
antioxidants,cropColor,purple green,anova,16549.464999999997,7962.674999999996,kale
antioxidants,cropColor,white green,anova,10599.27,2012.4799999999996,kale
antioxidants,cropColor,yellow green white,anova,11462.06,2875.2699999999986,kale
antioxidants,climateRegion,Central,anova,5550.525,-3036.2650000000012,kale
antioxidants,climateRegion,East North Central,anova,9647.336410256406,1060.5464102564056,kale
antioxidants,climateRegion,Northeast,anova,12823.511818181818,4236.721818181817,kale
antioxidants,climateRegion,Southeast,anova,10169.517333333333,1582.7273333333324,kale
antioxidants,climateRegion,West,anova,7382.697083333335,-1204.0929166666656,kale
antioxidants,climateRegion,West North Central,anova,9345.71,758.9199999999983,kale
antioxidants,variety,black_magic,anova,8818.145000000002,231.35500000000138,kale
antioxidants,variety,darkibor,anova,17872.548,9285.757999999998,kale
antioxidants,variety,dazzling_blue_laacinato,anova,3921.0800000000004,-4665.710000000001,kale
antioxidants,variety,Dwarf Blue,anova,9345.71,758.9199999999983,kale
antioxidants,variety,dwarf_curly,anova,5491.0233333333335,-3095.7666666666673,kale
antioxidants,variety,lacinato,anova,7738.587088607597,-848.2029113924036,kale
antioxidants,variety,nero_di_tuscana_lacinato,anova,7518.870000000002,-1067.9199999999992,kale
antioxidants,variety,red_russian,anova,7531.794285714285,-1054.9957142857156,kale
antioxidants,variety,ruby_streaks,anova,20378.47000000001,11791.680000000008,kale
antioxidants,variety,white_russian,anova,7193.9000000000005,-1392.8900000000003,kale
antioxidants,variety,winterbor,anova,10718.62,2131.83,kale
antioxidants,sample_source,farm,anova,9161.452758620688,574.6627586206869,kale
antioxidants,sample_source,farm_market,anova,7973.714999999999,-613.0750000000016,kale
antioxidants,sample_source,garden,anova,11248.358333333335,2661.5683333333345,kale
antioxidants,sample_source,store,anova,12866.2945,4279.504499999999,kale
bqi,NA,NA,median,0.37087246107665534,0,kale
bqi,cropColor,green,anova,0.37043585740912977,-0.00043660366752557023,kale
bqi,cropColor,green brown,anova,0.3928768527278461,0.02200439165119078,kale
bqi,cropColor,green purple,anova,0.3515941817921672,-0.01927827928448811,kale
bqi,cropColor,green white,anova,0.39479596147182616,0.023923500395170827,kale
bqi,cropColor,green yellow,anova,0.3947763002674701,0.02390383919081479,kale
bqi,cropColor,purple green,anova,0.44396724657486236,0.07309478549820703,kale
bqi,climateRegion,Central,anova,0.3144684320870855,-0.05640402898956981,kale
bqi,climateRegion,East North Central,anova,0.34289626396414474,-0.027976197112510592,kale
bqi,climateRegion,Northeast,anova,0.33214130590303326,-0.03873115517362208,kale
bqi,climateRegion,Southeast,anova,0.42410066414964337,0.053228203072988034,kale
bqi,climateRegion,West,anova,0.39697862711432375,0.02610616603766841,kale
bqi,climateRegion,West North Central,anova,0.33830219173762216,-0.032570269339033175,kale
bqi,variety,black_magic,anova,0.4299636754382892,0.05909121436163384,kale
bqi,variety,darkibor,anova,0.5028927082238339,0.13202024714717858,kale
bqi,variety,dazzling_blue_laacinato,anova,0.3748115152364601,0.003939054159804778,kale
bqi,variety,Dwarf Blue,anova,0.33830219173762216,-0.032570269339033175,kale
bqi,variety,lacinato,anova,0.3995438002279646,0.02867133915130926,kale
bqi,variety,nero_di_tuscana_lacinato,anova,0.35615682827787315,-0.014715632798782186,kale
bqi,variety,red_russian,anova,0.34033033743298635,-0.030542123643668984,kale
bqi,variety,siberian,anova,0.34412529053809404,-0.026747170538561293,kale
bqi,variety,winterbor,anova,0.3439997678615228,-0.026872693215132526,kale
bqi,sample_source,farm,anova,0.3757939029738147,0.004921441897159373,kale
bqi,sample_source,farm_market,anova,0.352705167587434,-0.01816729348922136,kale
bqi,sample_source,garden,anova,0.49189997313617617,0.12102751205952084,kale
bqi,sample_source,store,anova,0.3316023115584015,-0.03927014951825386,kale
brix,NA,NA,median,11.4,0,kale
brix,cropColor,green,anova,11.24076923076923,-0.15923076923077062,kale
brix,cropColor,green brown,anova,7.8,-3.6000000000000005,kale
brix,cropColor,green purple,anova,8.649999999999999,-2.7500000000000018,kale
brix,cropColor,green purple yellow,anova,10.3,-1.0999999999999996,kale
brix,cropColor,green white,anova,8.966666666666669,-2.433333333333332,kale
brix,cropColor,green yellow,anova,10.066666666666668,-1.3333333333333321,kale
brix,cropColor,green yellow purple,anova,11.749999999999998,0.34999999999999787,kale
brix,cropColor,purple green,anova,9.999999999999998,-1.4000000000000021,kale
brix,cropColor,yellow green purple,anova,8,-3.4000000000000004,kale
brix,climateRegion,Central,anova,6.574999999999999,-4.825000000000001,kale
brix,climateRegion,East North Central,anova,9.049999999999995,-2.350000000000005,kale
brix,climateRegion,Northeast,anova,7.631818181818179,-3.768181818181821,kale
brix,climateRegion,Southeast,anova,9.761111111111115,-1.6388888888888857,kale
brix,climateRegion,West,anova,13.749999999999998,2.349999999999998,kale
brix,climateRegion,West North Central,anova,10.049999999999999,-1.3500000000000014,kale
brix,variety,black_magic,anova,10.3,-1.0999999999999996,kale
brix,variety,darkibor,anova,9.98,-1.42,kale
brix,variety,dazzling_blue_laacinato,anova,11.2,-0.20000000000000107,kale
brix,variety,Dwarf Blue,anova,10.049999999999997,-1.3500000000000032,kale
brix,variety,lacinato,anova,13.156521739130433,1.7565217391304326,kale
brix,variety,nero_di_tuscana_lacinato,anova,10.700000000000001,-0.6999999999999993,kale
brix,variety,red_russian,anova,7.737499999999999,-3.6625000000000014,kale
brix,variety,siberian,anova,9.2,-2.200000000000001,kale
brix,variety,winterbor,anova,6.525,-4.875,kale
brix,sample_source,farm,anova,8.785714285714285,-2.6142857142857157,kale
brix,sample_source,farm_market,anova,10.85,-0.5500000000000007,kale
brix,sample_source,garden,anova,11.4,0,kale
brix,sample_source,store,anova,8.267647058823526,-3.1323529411764746,kale
polyphenols,NA,NA,median,196.21,0,kale
polyphenols,cropColor,green,anova,232.52103225806454,36.31103225806453,kale
polyphenols,cropColor,green brown,anova,416.46000000000004,220.25000000000003,kale
polyphenols,cropColor,green purple,anova,326.438,130.22799999999998,kale
polyphenols,cropColor,green purple yellow,anova,283.32,87.10999999999999,kale
polyphenols,cropColor,green white,anova,287.2100000000001,91.00000000000009,kale
polyphenols,cropColor,green yellow,anova,283.4100000000001,87.20000000000007,kale
polyphenols,cropColor,green yellow brown,anova,548.265,352.05499999999995,kale
polyphenols,cropColor,green yellow purple,anova,404.53499999999997,208.32499999999996,kale
polyphenols,cropColor,purple green,anova,454.5199999999999,258.30999999999995,kale
polyphenols,cropColor,white green,anova,452.41,256.20000000000005,kale
polyphenols,cropColor,yellow green,anova,662.05,465.8399999999999,kale
polyphenols,cropColor,yellow green purple,anova,659,462.78999999999996,kale
polyphenols,cropColor,yellow green white,anova,490.99,294.78,kale
polyphenols,climateRegion,Central,anova,253.64999999999998,57.43999999999997,kale
polyphenols,climateRegion,East North Central,anova,291.43594594594595,95.22594594594594,kale
polyphenols,climateRegion,Northeast,anova,296.9354838709678,100.72548387096779,kale
polyphenols,climateRegion,Southeast,anova,376.39724137931034,180.18724137931034,kale
polyphenols,climateRegion,West,anova,168.12229166666668,-28.087708333333325,kale
polyphenols,climateRegion,West North Central,anova,317.87999999999994,121.66999999999993,kale
polyphenols,variety,black_magic,anova,340.09,143.87999999999997,kale
polyphenols,variety,darkibor,anova,562.6999999999999,366.4899999999999,kale
polyphenols,variety,dazzling_blue_laacinato,anova,132.95999999999998,-63.25000000000003,kale
polyphenols,variety,Dwarf Blue,anova,317.87999999999994,121.66999999999993,kale
polyphenols,variety,dwarf_curly,anova,280.24666666666667,84.03666666666666,kale
polyphenols,variety,lacinato,anova,208.0705063291139,11.860506329113889,kale
polyphenols,variety,nero_di_tuscana_lacinato,anova,214.05333333333337,17.843333333333362,kale
polyphenols,variety,red_russian,anova,354.2828571428571,158.0728571428571,kale
polyphenols,variety,ruby_streaks,anova,681.4200000000001,485.21000000000004,kale
polyphenols,variety,white_russian,anova,392.8500000000001,196.64000000000007,kale
polyphenols,variety,winterbor,anova,399.5475,203.3375,kale
polyphenols,sample_source,farm,anova,347.0623214285715,150.85232142857151,kale
polyphenols,sample_source,farm_market,anova,237.38,41.16999999999999,kale
polyphenols,sample_source,garden,anova,392.2983333333334,196.0883333333334,kale
polyphenols,sample_source,store,anova,265.275945945946,69.06594594594597,kale
antioxidants,NA,NA,median,483.62,0,lettuce
antioxidants,cropColor,green,anova,696.8642519685038,213.24425196850382,lettuce
antioxidants,cropColor,green purple,anova,3023.609411764706,2539.989411764706,lettuce
antioxidants,cropColor,green yellow white,anova,1393.2733333333335,909.6533333333335,lettuce
antioxidants,cropColor,yellow green white,anova,2486.63,2003.0100000000002,lettuce
antioxidants,climateRegion,Northeast,anova,1295.4764864864865,811.8564864864865,lettuce
antioxidants,climateRegion,Southeast,anova,2199.4404166666673,1715.8204166666674,lettuce
antioxidants,climateRegion,West,anova,389.05241379310337,-94.56758620689664,lettuce
antioxidants,variety,ARUGULA,anova,2621.290000000001,2137.670000000001,lettuce
antioxidants,variety,butterhead,anova,1265.0214285714285,781.4014285714285,lettuce
antioxidants,variety,green_oak,anova,1119.553333333334,635.933333333334,lettuce
antioxidants,variety,little_gem,anova,389.05241379310337,-94.56758620689664,lettuce
antioxidants,variety,red_oak,anova,1602.8049999999998,1119.185,lettuce
antioxidants,variety,romaine,anova,1439.4544444444448,955.8344444444448,lettuce
antioxidants,variety,salanova_red,anova,3282.6612499999997,2799.0412499999998,lettuce
antioxidants,sample_source,farm,anova,1559.406315789474,1075.786315789474,lettuce
antioxidants,sample_source,farm_market,anova,1790.4824999999998,1306.8624999999997,lettuce
antioxidants,sample_source,store,anova,985.8179166666669,502.19791666666686,lettuce
bqi,NA,NA,median,0.3861941176887235,0,lettuce
bqi,cropColor,brown green white,anova,0.46648519589302334,0.08029107820429982,lettuce
bqi,cropColor,green,anova,0.3793776645109857,-0.0068164531777378246,lettuce
bqi,cropColor,green brown white,anova,0.47394961628857996,0.08775549859985643,lettuce
bqi,cropColor,green purple,anova,0.4687502331805033,0.08255611549177977,lettuce
bqi,cropColor,green white,anova,0.24276554292697292,-0.1434285747617506,lettuce
bqi,cropColor,green white yellow,anova,0.2061245552809849,-0.18006956240773864,lettuce
bqi,cropColor,green yellow white,anova,0.3112456569716985,-0.07494846071702504,lettuce
bqi,cropColor,yellow green white,anova,0.3863248408094459,1.307231207223758e-4,lettuce
bqi,climateRegion,Central,anova,0.36285561376119696,-0.023338503927526566,lettuce
bqi,climateRegion,East North Central,anova,0.26661878606864425,-0.11957533162007927,lettuce
bqi,climateRegion,Northeast,anova,0.33971232316082306,-0.046481794527900466,lettuce
bqi,climateRegion,Southeast,anova,0.47437911651348036,0.08818499882475683,lettuce
bqi,climateRegion,West,anova,0.4139413916689686,0.02774727398024507,lettuce
bqi,climateRegion,West North Central,anova,0.4732963912919027,0.08710227360317918,lettuce
bqi,variety,adriana,anova,0.4522633276127645,0.06606920992404097,lettuce
bqi,variety,ARUGULA,anova,0.3628829822870691,-0.023311135401654415,lettuce
bqi,variety,BABY BUTTER LETTUCE,anova,0.35103220226064563,-0.035161915428077894,lettuce
bqi,variety,butterhead,anova,0.32402057654833455,-0.06217354114038898,lettuce
bqi,variety,deer tongue,anova,0.362855613761197,-0.02333850392752651,lettuce
bqi,variety,green_oak,anova,0.38921668622826205,0.0030225685395385282,lettuce
bqi,variety,iceberg,anova,0.1531161475448426,-0.23307797014388093,lettuce
bqi,variety,little_gem,anova,0.4139413916689686,0.02774727398024507,lettuce
bqi,variety,merveille_des_quatre_saisons,anova,0.3943787044293647,0.008184586740641153,lettuce
bqi,variety,muir,anova,0.3759949539833783,-0.010199163705345238,lettuce
bqi,variety,nevada,anova,0.46648519589302334,0.08029107820429982,lettuce
bqi,variety,pirat,anova,0.4732963912919027,0.08710227360317918,lettuce
bqi,variety,prizehead,anova,0.4660867941802137,0.07989267649149018,lettuce
bqi,variety,red_oak,anova,0.42574175041626555,0.039547632727542026,lettuce
bqi,variety,romaine,anova,0.295495356777249,-0.09069876091147455,lettuce
bqi,variety,salanova_red,anova,0.4924669977069116,0.10627288001818808,lettuce
bqi,variety,tropicana,anova,0.282323244633269,-0.1038708730554545,lettuce
bqi,sample_source,farm,anova,0.44599379242995724,0.05979967474123371,lettuce
bqi,sample_source,farm_market,anova,0.3720207758099521,-0.01417334187877145,lettuce
bqi,sample_source,garden,anova,0.4660867941802137,0.07989267649149018,lettuce
bqi,sample_source,store,anova,0.2943071591272237,-0.09188695856149981,lettuce
brix,NA,NA,median,3.6,0,lettuce
brix,cropColor,brown green,anova,3.2000000000000006,-0.39999999999999947,lettuce
brix,cropColor,brown green white,anova,3.7,0.10000000000000009,lettuce
brix,cropColor,green,anova,3.530252100840336,-0.06974789915966406,lettuce
brix,cropColor,green brown white,anova,2.7499999999999996,-0.8500000000000005,lettuce
brix,cropColor,green purple,anova,3.3888888888888893,-0.2111111111111108,lettuce
brix,cropColor,green white,anova,3.0444444444444443,-0.5555555555555558,lettuce
brix,cropColor,green white brown,anova,2,-1.6,lettuce
brix,cropColor,green white yellow,anova,4.3999999999999995,0.7999999999999994,lettuce
brix,cropColor,green yellow white,anova,5.033333333333334,1.433333333333334,lettuce
brix,cropColor,purple green,anova,3.8,0.19999999999999973,lettuce
brix,cropColor,yellow green white,anova,4,0.3999999999999999,lettuce
brix,climateRegion,Central,anova,2.4666666666666672,-1.1333333333333329,lettuce
brix,climateRegion,East North Central,anova,3.3,-0.30000000000000027,lettuce
brix,climateRegion,Northeast,anova,2.853125,-0.7468750000000002,lettuce
brix,climateRegion,Southeast,anova,3.5375,-0.0625,lettuce
brix,climateRegion,West,anova,3.8655172413793095,0.26551724137930943,lettuce
brix,climateRegion,West North Central,anova,4.999999999999998,1.3999999999999981,lettuce
brix,variety,adriana,anova,4.5,0.8999999999999999,lettuce
brix,variety,ARUGULA,anova,2.866666666666667,-0.733333333333333,lettuce
brix,variety,BABY BUTTER LETTUCE,anova,2.666666666666667,-0.9333333333333331,lettuce
brix,variety,butterhead,anova,2.528571428571429,-1.0714285714285712,lettuce
brix,variety,deer tongue,anova,2.1000000000000005,-1.4999999999999996,lettuce
brix,variety,green_oak,anova,3.4000000000000012,-0.19999999999999885,lettuce
brix,variety,iceberg,anova,1.8000000000000016,-1.7999999999999985,lettuce
brix,variety,little_gem,anova,3.86551724137931,0.2655172413793099,lettuce
brix,variety,merveille_des_quatre_saisons,anova,3.833333333333334,0.23333333333333384,lettuce
brix,variety,muir,anova,4.6,0.9999999999999996,lettuce
brix,variety,nevada,anova,3.366666666666667,-0.23333333333333295,lettuce
brix,variety,panisse,anova,2.8333333333333344,-0.7666666666666657,lettuce
brix,variety,pirat,anova,4.999999999999999,1.399999999999999,lettuce
brix,variety,prizehead,anova,3.933333333333335,0.3333333333333348,lettuce
brix,variety,red_oak,anova,2.3000000000000003,-1.2999999999999998,lettuce
brix,variety,romaine,anova,2.8555555555555556,-0.7444444444444445,lettuce
brix,variety,salanova_red,anova,3.066666666666667,-0.5333333333333332,lettuce
brix,variety,tropicana,anova,2.9666666666666672,-0.6333333333333329,lettuce
brix,sample_source,farm,anova,3.451515151515152,-0.148484848484848,lettuce
brix,sample_source,farm_market,anova,4.275,0.6750000000000003,lettuce
brix,sample_source,garden,anova,3.933333333333334,0.3333333333333339,lettuce
brix,sample_source,store,anova,2.8872340425531924,-0.7127659574468077,lettuce
polyphenols,NA,NA,median,27.78,0,lettuce
polyphenols,cropColor,brown green,anova,111.89,84.11,lettuce
polyphenols,cropColor,brown green white,anova,158.44,130.66,lettuce
polyphenols,cropColor,green,anova,31.2268253968254,3.4468253968253997,lettuce
polyphenols,cropColor,green brown white,anova,100.09999999999998,72.31999999999998,lettuce
polyphenols,cropColor,green purple,anova,37.30777777777778,9.527777777777779,lettuce
polyphenols,cropColor,green white,anova,53.081111111111106,25.301111111111105,lettuce
polyphenols,cropColor,green white brown,anova,64.47,36.69,lettuce
polyphenols,cropColor,purple green,anova,60.32,32.54,lettuce
polyphenols,climateRegion,Central,anova,32.905,5.125,lettuce
polyphenols,climateRegion,East North Central,anova,38.745714285714286,10.965714285714284,lettuce
polyphenols,climateRegion,Northeast,anova,27.28837837837838,-0.49162162162162204,lettuce
polyphenols,climateRegion,Southeast,anova,62.99120000000001,35.21120000000001,lettuce
polyphenols,climateRegion,West,anova,27.585862068965515,-0.1941379310344864,lettuce
polyphenols,climateRegion,West North Central,anova,60.29999999999999,32.51999999999999,lettuce
polyphenols,variety,adriana,anova,45.72000000000001,17.940000000000012,lettuce
polyphenols,variety,butterhead,anova,18.208571428571428,-9.571428571428573,lettuce
polyphenols,variety,deer tongue,anova,27.54000000000001,-0.23999999999999133,lettuce
polyphenols,variety,green_oak,anova,22.60666666666667,-5.173333333333332,lettuce
polyphenols,variety,little_gem,anova,27.58586206896551,-0.19413793103448995,lettuce
polyphenols,variety,merveille_des_quatre_saisons,anova,87.73999999999998,59.95999999999998,lettuce
polyphenols,variety,muir,anova,98.12000000000003,70.34000000000003,lettuce
polyphenols,variety,nevada,anova,131.61000000000004,103.83000000000004,lettuce
polyphenols,variety,panisse,anova,38.27000000000002,10.490000000000016,lettuce
polyphenols,variety,pirat,anova,60.29999999999999,32.51999999999999,lettuce
polyphenols,variety,prizehead,anova,52.09000000000001,24.31000000000001,lettuce
polyphenols,variety,red_oak,anova,58.415,30.634999999999998,lettuce
polyphenols,variety,romaine,anova,25.54222222222222,-2.2377777777777794,lettuce
polyphenols,variety,salanova_red,anova,34.52888888888889,6.748888888888892,lettuce
polyphenols,variety,tropicana,anova,65.20666666666666,37.42666666666666,lettuce
polyphenols,sample_source,farm,anova,63.11368421052632,35.33368421052632,lettuce
polyphenols,sample_source,farm_market,anova,30.509999999999998,2.729999999999997,lettuce
polyphenols,sample_source,garden,anova,52.09000000000001,24.31000000000001,lettuce
polyphenols,sample_source,store,anova,25.312291666666674,-2.467708333333327,lettuce
antioxidants,NA,NA,median,6316.5,0,mustard_greens
antioxidants,cropColor,green,anova,6837.090980392159,520.5909803921586,mustard_greens
antioxidants,cropColor,green purple,anova,23583.722000000005,17267.222000000005,mustard_greens
antioxidants,cropColor,green yellow,anova,14915.920000000002,8599.420000000002,mustard_greens
antioxidants,cropColor,purple green,anova,15160.840000000002,8844.340000000002,mustard_greens
antioxidants,climateRegion,East North Central,anova,8618.035624999997,2301.535624999997,mustard_greens
antioxidants,climateRegion,Northeast,anova,17450.719999999998,11134.219999999998,mustard_greens
antioxidants,climateRegion,Southeast,anova,16020.861,9704.361,mustard_greens
antioxidants,climateRegion,West,anova,5948.806399999998,-367.69360000000233,mustard_greens
antioxidants,variety,Pink Lettucy Mustard,anova,14915.92,8599.42,mustard_greens
antioxidants,variety,red_giant,anova,18938.06666666667,12621.56666666667,mustard_greens
antioxidants,variety,red_mustard,anova,15160.840000000002,8844.340000000002,mustard_greens
antioxidants,variety,ruby_streaks,anova,19021.899999999998,12705.399999999998,mustard_greens
antioxidants,variety,southern_giant_curled,anova,5948.806399999999,-367.6936000000014,mustard_greens
antioxidants,sample_source,farm,anova,16656.35388888889,10339.85388888889,mustard_greens
antioxidants,sample_source,store,anova,8618.035625,2301.5356250000004,mustard_greens
bqi,NA,NA,median,0.39290674603174597,0,mustard_greens
bqi,cropColor,green,anova,0.37054122574955917,-0.0223655202821868,mustard_greens
bqi,cropColor,green purple,anova,0.4275297619047623,0.034623015873016305,mustard_greens
bqi,cropColor,green yellow,anova,0.392906746031746,5.551115123125783e-17,mustard_greens
bqi,cropColor,purple green,anova,0.4465112433862435,0.053604497354497516,mustard_greens
bqi,climateRegion,East North Central,anova,0.3541170634920634,-0.03878968253968257,mustard_greens
bqi,climateRegion,Northeast,anova,0.4202281746031746,0.027321428571428608,mustard_greens
bqi,climateRegion,Southeast,anova,0.44052579365079364,0.04761904761904767,mustard_greens
bqi,variety,Pink Lettucy Mustard,anova,0.392906746031746,5.551115123125783e-17,mustard_greens
bqi,variety,red_giant,anova,0.494890873015873,0.10198412698412701,mustard_greens
bqi,variety,red_mustard,anova,0.4465112433862434,0.053604497354497405,mustard_greens
bqi,variety,ruby_streaks,anova,0.4275297619047621,0.03462301587301614,mustard_greens
bqi,sample_source,farm,anova,0.4303769841269841,0.03747023809523814,mustard_greens
bqi,sample_source,store,anova,0.3541170634920634,-0.03878968253968257,mustard_greens
brix,NA,NA,median,8.55,0,mustard_greens
brix,cropColor,green,anova,8.455555555555556,-0.094444444444445,mustard_greens
brix,cropColor,green purple,anova,5.900000000000011,-2.6499999999999897,mustard_greens
brix,cropColor,green yellow,anova,4.000000000000001,-4.55,mustard_greens
brix,cropColor,purple green,anova,6.633333333333335,-1.916666666666666,mustard_greens
brix,climateRegion,East North Central,anova,6.5875,-1.9625000000000004,mustard_greens
brix,climateRegion,Northeast,anova,4.999999999999999,-3.5500000000000016,mustard_greens
brix,climateRegion,Southeast,anova,7.160000000000001,-1.3899999999999997,mustard_greens
brix,climateRegion,West,anova,8.85394736842105,0.3039473684210492,mustard_greens
brix,variety,Pink Lettucy Mustard,anova,4,-4.550000000000001,mustard_greens
brix,variety,red_giant,anova,7.1,-1.450000000000001,mustard_greens
brix,variety,red_mustard,anova,6.633333333333335,-1.916666666666666,mustard_greens
brix,variety,ruby_streaks,anova,5.8999999999999995,-2.6500000000000012,mustard_greens
brix,variety,southern_giant_curled,anova,8.85394736842105,0.3039473684210492,mustard_greens
brix,sample_source,farm,anova,6.08,-2.4700000000000006,mustard_greens
brix,sample_source,store,anova,6.5875,-1.9625000000000004,mustard_greens
polyphenols,NA,NA,median,181.015,0,mustard_greens
polyphenols,farm_practices.none,true,medians,181.01258623515713,-0.0024137648428563807,mustard_greens
polyphenols,cropColor,green,anova,205.59699029126216,24.581990291262173,mustard_greens
polyphenols,cropColor,green purple,anova,620.5599999999998,439.54499999999985,mustard_greens
polyphenols,cropColor,green yellow,anova,633.7100000000003,452.6950000000003,mustard_greens
polyphenols,cropColor,purple green,anova,446.1066666666667,265.0916666666667,mustard_greens
polyphenols,climateRegion,East North Central,anova,285.078125,104.06312500000001,mustard_greens
polyphenols,climateRegion,Northeast,anova,557.4262499999999,376.4112499999999,mustard_greens
polyphenols,climateRegion,Southeast,anova,378.91799999999995,197.90299999999996,mustard_greens
polyphenols,climateRegion,West,anova,184.91842105263154,3.9034210526315576,mustard_greens
polyphenols,variety,Pink Lettucy Mustard,anova,633.71000000000015,452.69500000000016,mustard_greens
polyphenols,variety,red_giant,anova,518.4633333333334,337.4483333333334,mustard_greens
polyphenols,variety,red_mustard,anova,446.1066666666667,265.0916666666667,mustard_greens
polyphenols,variety,ruby_streaks,anova,501.4450000000003,320.4300000000003,mustard_greens
polyphenols,variety,southern_giant_curled,anova,184.91842105263157,3.903421052631586,mustard_greens
polyphenols,sample_source,farm,anova,458.25500000000017,277.2400000000002,mustard_greens
polyphenols,sample_source,store,anova,285.078125,104.06312500000001,mustard_greens
antioxidants,NA,NA,median,952.01,0,swiss_chard
antioxidants,cropColor,brown red green,anova,1879.34,927.3299999999999,swiss_chard
antioxidants,cropColor,green,anova,1041.737962962963,89.72796296296292,swiss_chard
antioxidants,cropColor,green brown red,anova,1816.15,864.1400000000001,swiss_chard
antioxidants,cropColor,green orange red,anova,591.7500000000002,-360.25999999999976,swiss_chard
antioxidants,cropColor,green orange yellow red,anova,1188.18,236.17000000000007,swiss_chard
antioxidants,cropColor,green purple,anova,1834.376666666667,882.366666666667,swiss_chard
antioxidants,cropColor,green red,anova,820.4007692307692,-131.60923076923075,swiss_chard
antioxidants,cropColor,green white,anova,1357.436666666667,405.42666666666696,swiss_chard
antioxidants,cropColor,green yellow,anova,1049.8083333333336,97.79833333333363,swiss_chard
antioxidants,cropColor,purple green red white,anova,1020.2700000000004,68.26000000000045,swiss_chard
antioxidants,cropColor,yellow green,anova,1894.8099999999993,942.7999999999993,swiss_chard
antioxidants,climateRegion,Central,anova,1132.5639999999999,180.55399999999986,swiss_chard
antioxidants,climateRegion,East North Central,anova,947.9521428571426,-4.057857142857415,swiss_chard
antioxidants,climateRegion,Northeast,anova,1035.9955555555557,83.98555555555572,swiss_chard
antioxidants,climateRegion,Southeast,anova,1059.538,107.52800000000002,swiss_chard
antioxidants,variety,argentata,anova,815.05,-136.96000000000004,swiss_chard
antioxidants,variety,bright_lights,anova,1025.312,73.30199999999991,swiss_chard
antioxidants,variety,five_color_silverbeet,anova,1338.9783333333337,386.9683333333337,swiss_chard
antioxidants,variety,fordhook_giant,anova,835.8399999999998,-116.17000000000019,swiss_chard
antioxidants,variety,rainbow,anova,1073.4011111111115,121.39111111111151,swiss_chard
antioxidants,variety,saved seed,anova,675.0900000000001,-276.91999999999985,swiss_chard
antioxidants,sample_source,farm,anova,1112.115625,160.10562499999992,swiss_chard
antioxidants,sample_source,store,anova,947.9521428571425,-4.057857142857529,swiss_chard
bqi,NA,NA,median,0.3741168535459474,0,swiss_chard
bqi,cropColor,brown red green,anova,0.3420760256396176,-0.03204082790632984,swiss_chard
bqi,cropColor,green,anova,0.3811135494173786,0.006996695871431202,swiss_chard
bqi,cropColor,green brown red,anova,0.30389321157809573,-0.07022364196785169,swiss_chard
bqi,cropColor,green purple,anova,0.5027151033601663,0.1285982498142189,swiss_chard
bqi,cropColor,green red,anova,0.4087115355908529,0.034594682044905456,swiss_chard
bqi,cropColor,green red white,anova,0.25927189379546145,-0.11484495975048598,swiss_chard
bqi,cropColor,green red yellow,anova,0.38989291506052987,0.01577606151458244,swiss_chard
bqi,cropColor,green white,anova,0.3807566963550303,0.006639842809082863,swiss_chard
bqi,cropColor,green yellow,anova,0.3691009935168813,-0.0050158600290661215,swiss_chard
bqi,cropColor,green yellow red,anova,0.35571034260591344,-0.018406510940033982,swiss_chard
bqi,cropColor,green yellow white,anova,0.2874078873672535,-0.08670896617869395,swiss_chard
bqi,cropColor,red green,anova,0.34155528954391196,-0.03256156400203547,swiss_chard
bqi,climateRegion,Central,anova,0.3499506147248427,-0.024166238821104746,swiss_chard
bqi,climateRegion,East North Central,anova,0.39712590739866227,0.023009053852714845,swiss_chard
bqi,climateRegion,Northeast,anova,0.3729802682464202,-0.001136585299527204,swiss_chard
bqi,climateRegion,Southeast,anova,0.37509916808061616,9.823145346687379e-4,swiss_chard
bqi,climateRegion,West,anova,0.43935849705861907,0.06524164351267164,swiss_chard
bqi,variety,argentata,anova,0.27703312821151105,-0.09708372533443638,swiss_chard
bqi,variety,bright_lights,anova,0.3740673653133019,-4.9488232645500396e-5,swiss_chard
bqi,variety,five_color_silverbeet,anova,0.4198464514900923,0.045729597944144884,swiss_chard
bqi,variety,fordhook_giant,anova,0.3664476074510105,-0.00766924609493691,swiss_chard
bqi,variety,rainbow,anova,0.3683766927875014,-0.005740160758446022,swiss_chard
bqi,variety,red kitten,anova,0.3782675656151886,0.004150712069241169,swiss_chard
bqi,variety,saved seed,anova,0.3055168511664854,-0.06860000237946201,swiss_chard
bqi,sample_source,farm,anova,0.3707075817374861,-0.003409271808461345,swiss_chard
bqi,sample_source,farm_market,anova,0.4199073108053198,0.045790457259372364,swiss_chard
bqi,sample_source,garden,anova,0.43935849705861896,0.06524164351267153,swiss_chard
bqi,sample_source,store,anova,0.3965378451807929,0.022420991634845455,swiss_chard
brix,NA,NA,median,6.6,0,swiss_chard
brix,cropColor,brown red green,anova,5.800000000000001,-0.7999999999999989,swiss_chard
brix,cropColor,green,anova,6.784313725490196,0.1843137254901963,swiss_chard
brix,cropColor,green brown red,anova,7.2,0.6000000000000005,swiss_chard
brix,cropColor,green orange red,anova,4.566666666666668,-2.0333333333333314,swiss_chard
brix,cropColor,green orange yellow red,anova,2.9000000000000004,-3.6999999999999993,swiss_chard
brix,cropColor,green purple,anova,6.859999999999999,0.2599999999999998,swiss_chard
brix,cropColor,green red,anova,6.509999999999999,-0.09000000000000075,swiss_chard
brix,cropColor,green red white,anova,7.3,0.7000000000000002,swiss_chard
brix,cropColor,green red yellow,anova,6.599999999999999,-8.881784197001252e-16,swiss_chard
brix,cropColor,green white,anova,6.333333333333334,-0.2666666666666657,swiss_chard
brix,cropColor,green yellow,anova,7.500000000000002,0.9000000000000021,swiss_chard
brix,cropColor,green yellow red,anova,6.366666666666669,-0.23333333333333073,swiss_chard
brix,cropColor,green yellow white,anova,8.4,1.8000000000000007,swiss_chard
brix,cropColor,green yellow white purple,anova,3.5,-3.0999999999999996,swiss_chard
brix,cropColor,purple green red white,anova,5.100000000000004,-1.4999999999999956,swiss_chard
brix,cropColor,purple green white,anova,6.200000000000003,-0.3999999999999968,swiss_chard
brix,cropColor,red green,anova,6.05,-0.5499999999999998,swiss_chard
brix,cropColor,yellow green,anova,6.200000000000001,-0.3999999999999986,swiss_chard
brix,climateRegion,Central,anova,6.54,-0.05999999999999961,swiss_chard
brix,climateRegion,East North Central,anova,6.008000000000001,-0.5919999999999987,swiss_chard
brix,climateRegion,Northeast,anova,6.291666666666665,-0.30833333333333446,swiss_chard
brix,climateRegion,Southeast,anova,7.186363636363635,0.5863636363636351,swiss_chard
brix,climateRegion,West,anova,8.000000000000002,1.4000000000000021,swiss_chard
brix,variety,argentata,anova,5.866666666666669,-0.7333333333333307,swiss_chard
brix,variety,bright_lights,anova,6.686666666666666,0.086666666666666,swiss_chard
brix,variety,five_color_silverbeet,anova,8.24,1.6400000000000006,swiss_chard
brix,variety,fordhook_giant,anova,6.166666666666668,-0.4333333333333318,swiss_chard
brix,variety,rainbow,anova,5.630434782608696,-0.9695652173913034,swiss_chard
brix,variety,red kitten,anova,6.466666666666668,-0.13333333333333197,swiss_chard
brix,variety,saved seed,anova,8.149999999999999,1.549999999999999,swiss_chard
brix,sample_source,farm,anova,6.6716981132075475,0.07169811320754782,swiss_chard
brix,sample_source,farm_market,anova,5,-1.5999999999999996,swiss_chard
brix,sample_source,garden,anova,8.000000000000002,1.4000000000000021,swiss_chard
brix,sample_source,store,anova,6.135714285714284,-0.4642857142857153,swiss_chard
polyphenols,NA,NA,median,180.275,0,swiss_chard
polyphenols,cropColor,green,anova,187.64872727272726,7.373727272727251,swiss_chard
polyphenols,cropColor,green orange red,anova,200.42000000000004,20.14500000000004,swiss_chard
polyphenols,cropColor,green orange yellow red,anova,193.35,13.074999999999989,swiss_chard
polyphenols,cropColor,green purple,anova,200.18666666666672,19.91166666666672,swiss_chard
polyphenols,cropColor,green red,anova,221.24000000000004,40.96500000000003,swiss_chard
polyphenols,cropColor,green red white,anova,168.96,-11.314999999999998,swiss_chard
polyphenols,cropColor,green red yellow,anova,272.1449999999999,91.86999999999992,swiss_chard
polyphenols,cropColor,green white,anova,274.15000000000003,93.87500000000003,swiss_chard
polyphenols,cropColor,green yellow,anova,205.17333333333337,24.89833333333337,swiss_chard
polyphenols,cropColor,green yellow red,anova,177.81666666666672,-2.458333333333286,swiss_chard
polyphenols,cropColor,green yellow white purple,anova,210.49,30.215000000000003,swiss_chard
polyphenols,cropColor,purple green red white,anova,192.99000000000007,12.71500000000006,swiss_chard
polyphenols,cropColor,purple green white,anova,372.74,192.465,swiss_chard
polyphenols,cropColor,red green,anova,181.10000000000002,0.825000000000017,swiss_chard
polyphenols,cropColor,yellow green,anova,392.6700000000001,212.39500000000007,swiss_chard
polyphenols,climateRegion,Central,anova,239.445,59.16999999999999,swiss_chard
polyphenols,climateRegion,East North Central,anova,192.75642857142853,12.481428571428523,swiss_chard
polyphenols,climateRegion,Northeast,anova,184.5260714285714,4.251071428571407,swiss_chard
polyphenols,climateRegion,Southeast,anova,224.31791666666672,44.04291666666671,swiss_chard
polyphenols,climateRegion,West,anova,302.0799999999999,121.80499999999992,swiss_chard
polyphenols,variety,argentata,anova,132.3466666666667,-47.92833333333331,swiss_chard
polyphenols,variety,bright_lights,anova,219.83333333333326,39.55833333333325,swiss_chard
polyphenols,variety,five_color_silverbeet,anova,210.48833333333337,30.213333333333367,swiss_chard
polyphenols,variety,fordhook_giant,anova,312.2314285714285,131.95642857142852,swiss_chard
polyphenols,variety,rainbow,anova,186.52653846153848,6.251538461538473,swiss_chard
polyphenols,variety,red kitten,anova,209.1966666666667,28.92166666666668,swiss_chard
polyphenols,variety,saved seed,anova,118.02000000000001,-62.254999999999995,swiss_chard
polyphenols,sample_source,farm,anova,213.41114754098362,33.136147540983615,swiss_chard
polyphenols,sample_source,farm_market,anova,194.9,14.625,swiss_chard
polyphenols,sample_source,garden,anova,302.0799999999999,121.80499999999992,swiss_chard
polyphenols,sample_source,store,anova,178.35419354838712,-1.92080645161289,swiss_chard
