metaDateCreated,metaDateModified,metaInstanceID,metaUserID,introduction,planting,planting_id_long,irrigation,irrigation_group.irrigation_use,irrigation_group.rate,irrigation_group.irrigation_supplmental,irrigation_group.type,weed_control,weed_control_group.weed_control_type_1,weed_control_group.herbicide_type_1,weed_control_group.herbicide_rate_1,weed_control_group.weed_control_frequency,mulch,mulch_group.mulch_type_1,mulch_group.mulch_other_1,mulch_group.mulch_depth_1,mulch_group.mulch_2,mulch_group.mulch_type_2,mulch_group.mulch_other_2,mulch_group.mulch_depth_2,amendment,amendments.amendment_type_1,amendments.name_1,amendments.amendment_brand_1,amendments.amendment_frequency_1,amendments.nutrients_1,amendments.amendment_2,amendments.amendment_type_2,amendments.name_2,amendments.amendment_brand_2,amendments.amendment_frequency_2,amendments.nutrients_2,amendments.amendment_3,amendments.amendment_type_3,amendments.name_3,amendments.amendment_brand_3,amendments.amendment_frequency_3,amendments.nutrients_3,amendments.amendment_4,amendments.amendment_type_4,amendments.name_4,amendments.amendment_brand_4,amendments.amendment_frequency_4,amendments.nutrients_4,pest_control,pest_disease_control.pest_disease_reason,pest_disease_control.pest_disease_type,pest_disease_control.pest_disease_rate,pest_disease_control.pest_control_frequency,pest_disease_control.pest_disease_controlled_1,pest_disease_control.pest_disease_controlled_2,pest_disease_control.pest_disease_controlled_3,thanks,,,,,,,,,,,,,,,,,,,,,,,,,,,,,,,,,,,,,,,,,
2020-01-13T18:30:20.092-05:00,2020-01-13T18:31:18.387-05:00,uuid:b4dbc7f6-8c57-4425-97ba-6981daa7b062,qkhe1nOaxKORKiqmsutwODlllPl2 | agp613@gmail.com,,lettuce,Lettuce_qkhe1nOaxKORKiqmsutwODlllPl2,yes,weekly_scheduled,7,,,yes,cultivation,,,3,no,,,,,,,,no,,,,,,,,,,,,,,,,,,,,,,,,no,,,,,,,,,,,,,,,,,,,,,,,,,,,,,,,,,,,,,,,,,,,,,,,,,
2020-01-13T18:31:35.570-05:00,2020-01-13T18:33:14.501-05:00,uuid:2504f1fa-112a-4043-a68e-27a1ebb6958b,qkhe1nOaxKORKiqmsutwODlllPl2 | agp613@gmail.com,,kale,kale__qkhe1nOaxKORKiqmsutwODlllPl2,yes,weekly_scheduled,7,,sprinkler_solid_above,yes,cultivation,,,2,no,,,,,,,,no,,,,,,,,,,,,,,,,,,,,,,,,,,,,,,,,,,,,,,,,,,,,,,,,,,,,,,,,,,,,,,,,,,,,,,,,,
2019-08-15T10:45:04.732-04:00,2019-08-15T10:54:54.591-04:00,uuid:1f36fe6f-2c89-479e-8da6-8c6a1e3b8dce,xh1Mi7pD7NfSo5o9PGkEDUq926t1 | Ben Kasmenn,,"2019-05-06 Field C Carrot (server: 32, id: 4)",2019-05-06_Field_C_Carrot_xh1Mi7pD7NfSo5o9PGkEDUq926t1,yes,supplmental,,10,sprinkler_solid_above,yes,hand_pulling hoeing cultivation,,,6,no,,,,,,,,yes,compost_tea,homemade,homemade,biweekly,N K P Ca Mg S B Cu Mn Zn Mo Co,yes,org_fertilizer,fish and seaweed,neptunes,once,N Ca K,no,,,,,,,,,,,,no,,,,,,,,,,,,,,,,,,,,,,,,,,,,,,,,,,,,,,,,,,,,,,,,,
2019-08-15T11:03:12.594-04:00,2019-08-15T11:06:04.760-04:00,uuid:830a75e3-481d-4d3e-9699-b7a2878e6a4c,xh1Mi7pD7NfSo5o9PGkEDUq926t1 | Ben Kasmenn,,"2019-08-01 Field C Lettuce (server: 32, id: 7)",2019-08-01_Field_C_Lettuce_xh1Mi7pD7NfSo5o9PGkEDUq926t1,yes,supplmental,,3,sprinkler_solid_above,yes,hand_pulling hoeing cultivation,,,2,no,,,,,,,,yes,compost_tea,homemade,homemade,twice,N P K Ca Mg S B Cu Mn Zn Mo Co,yes,org_fertilizer,fish and seaweed,neptunes,twice,N K Ca,no,,,,,,,,,,,,no,,,,,,,,,,,,,,,,,,,,,,,,,,,,,,,,,,,,,,,,,,,,,,,,,
2019-08-15T10:24:18.483-04:00,2019-08-15T10:34:02.017-04:00,uuid:38d977df-4391-4938-bcf0-2a516b0fd1c6,xh1Mi7pD7NfSo5o9PGkEDUq926t1 | Ben Kasmenn,,"2019-05-22 Field D (1) bed 7 Kale (server: 32, id: 5)",2019-05-22_Field_D_(1)_bed_7_Kale_xh1Mi7pD7NfSo5o9PGkEDUq926t1,yes,supplmental,,12,sprinkler_solid_above,yes,hand_pulling hoeing cultivation,,,6,no,,,,,,,,yes,compost_tea,homemade,homemade,biweekly,N Ca K Zn Mn B Cu Mo P,no,,,,,,no,,,,,,,,,,,,no,,,,,,,,,,,,,,,,,,,,,,,,,,,,,,,,,,,,,,,,,,,,,,,,,
2019-10-30T17:20:18.704-04:00,2019-10-30T17:21:56.103-04:00,uuid:fb50635a-20b3-49f0-84d1-3f316ecedc03,LtkiXKqekHNbfKaZstTgQ43ZDk73 | Caro Roszell,,lettuce,lettuce_LtkiXKqekHNbfKaZstTgQ43ZDk73,yes,supplmental,,1,sprinkler_solid_above,no,,,,,yes,other,living green mulch clover and oats,,,,,,no,,,,,,,,,,,,,,,,,,,,,,,,no,,,,,,,,,,,,,,,,,,,,,,,,,,,,,,,,,,,,,,,,,,,,,,,,,
2019-10-30T16:44:58.758-04:00,2019-10-30T16:46:12.423-04:00,uuid:e091e639-d705-4192-8502-844c637ec4f0,LtkiXKqekHNbfKaZstTgQ43ZDk73 | Caro Roszell,,spinach,spinach_LtkiXKqekHNbfKaZstTgQ43ZDk73,yes,supplmental,,2,sprinkler_solid_above,no,,,,,no,,,,,,,,no,,,,,,,,,,,,,,,,,,,,,,,,no,,,,,,,,,,,,,,,,,,,,,,,,,,,,,,,,,,,,,,,,,,,,,,,,,
2019-10-27T20:39:36.381-04:00,2019-10-27T20:41:50.201-04:00,uuid:fc1c7243-75b7-45d7-bf7b-d66e1beb3e61,C4Dn1Bg8xIdjB2jglQ6RZV2CcVf1 | casey@natickfatm.org,,"1B:1 Spinach Planting (server: 79, id: 2)",1B:1_Spinach_Planting_C4Dn1Bg8xIdjB2jglQ6RZV2CcVf1,yes,supplmental,,1,sprinkler_handline,yes,hand_pulling,,,2,yes,other,compost,2,no,,,,no,,,,,,,,,,,,,,,,,,,,,,,,no,,,,,,,,,,,,,,,,,,,,,,,,,,,,,,,,,,,,,,,,,,,,,,,,,
2019-12-11T15:00:40.528-05:00,2019-12-11T15:30:32.919-05:00,uuid:e9eb05d7-6944-417f-8aa4-0fc77380b642,7WMZkNmdpfWEc57i06AsMWElhyp1 | Charles Currie,,"2019-09-03 Market Garden Spinach (server: 43, id: 11)",2019-09-03_Market_Garden_Spinach_7WMZkNmdpfWEc57i06AsMWElhyp1,yes,supplmental,,2,sprinkler_solid_above,yes,hand_pulling,,,1,no,,,,,,,,no,,,,,,,,,,,,,,,,,,,,,,,,no,,,,,,,,,,,,,,,,,,,,,,,,,,,,,,,,,,,,,,,,,,,,,,,,,
2019-12-11T15:31:07.029-05:00,2019-12-11T15:32:40.317-05:00,uuid:c06b0a67-daff-4fca-a49d-d2e8990e469c,7WMZkNmdpfWEc57i06AsMWElhyp1 | Charles Currie,,"2019-08-19 Market Garden Carrot (server: 43, id: 9)",2019-08-19_Market_Garden_Carrot_7WMZkNmdpfWEc57i06AsMWElhyp1,yes,supplmental,,4,sprinkler_solid_above,yes,flaming,,,2,no,,,,,,,,no,,,,,,,,,,,,,,,,,,,,,,,,no,,,,,,,,,,,,,,,,,,,,,,,,,,,,,,,,,,,,,,,,,,,,,,,,,
2019-08-14T08:47:05.435-04:00,2019-08-14T08:56:23.691-04:00,uuid:1c92ca21-11fd-4843-b81f-93de7d72aeee,opcL7bdtmheNLBfstDQSv6gi08G3 | Emma Sutphen,,"2019-05-04 Quad D Bed 7 Kale (server: 111, id: 5)",2019-05-04_Quad_D_Bed_7_Kale_opcL7bdtmheNLBfstDQSv6gi08G3,yes,supplmental,,48,drip_surface,yes,hand_pulling,,,4,yes,other,Seaweed (Eelgrass),3,no,,,,yes,foliar_sprays,rejuvenate,advancing_eco_agriculture,once,unknown,yes,compost_tea,imo_1_and_2,homemade,biweekly,unknown,no,,,,,,,,,,,,yes,damage,hand_removal release_biocontrol alt_compounds compost_tea,,32,colorado_potato_beetle,bacterial_stripe_blight,cucumber_beetle,,,,,,,,,,,,,,,,,,,,,,,,,,,,,,,,,,,,,,,,,,
2019-08-13T13:10:18.829-04:00,2019-08-13T13:23:30.868-04:00,uuid:b3348a44-2b1a-42f8-a545-60c7b0ee1c87,opcL7bdtmheNLBfstDQSv6gi08G3 | Emma Sutphen,,"2019-05-15 Quad C Bed 17 Carrot (server: 111, id: 4)",2019-05-15_Quad_C_Bed 17_Carrot_opcL7bdtmheNLBfstDQSv6gi08G3,yes,supplmental,,28,drip_surface,yes,hand_pulling,,,3,no,,,,,,,,yes,foliar_sprays,Quantum/Plant Probiotic,green_turf_ag,weekly,unknown,yes,foliar_sprays,seashield,green_turf_ag,more_than_3,Ca,yes,foliar_sprays,Manganese Sulfate,Crop Production Services,twice,Mn S K,yes,foliar_sprays,Potassium Sulfate,,twice,K S,no,,,,,,,,,,,,,,,,,,,,,,,,,,,,,,,,,,,,,,,,,,,,,,,,,
2019-11-07T12:27:25.552-08:00,2019-11-07T12:29:35.048-08:00,uuid:76745387-389d-4af3-a7d4-377af60c1a7f,Cyzstj8ob4Q9hUDhT6XhxKKODWx2 | faithr@skyfactory.com,,"Medania Spinach  (server: 21, id: 11)",Medania_Spinach_Cyzstj8ob4Q9hUDhT6XhxKKODWx2,yes,supplmental,,4,hose,yes,hand_pulling hoeing,,,2,no,,,,,,,,no,,,,,,,,,,,,,,,,,,,,,,,,no,,,,,,,,,,,,,,,,,,,,,,,,,,,,,,,,,,,,,,,,,,,,,,,,,
2019-11-07T12:29:55.820-08:00,2019-11-07T12:32:33.159-08:00,uuid:c7bdac30-2089-45ec-8e63-2347df2643b3,Cyzstj8ob4Q9hUDhT6XhxKKODWx2 | faithr@skyfactory.com,,"Medania (server: 21, id: 7)",Medania_Cyzstj8ob4Q9hUDhT6XhxKKODWx2,yes,supplmental,,6,hose,yes,hand_pulling hoeing,,,2,no,,,,,,,,no,,,,,,,,,,,,,,,,,,,,,,,,no,,,,,,,,,,,,,,,,,,,,,,,,,,,,,,,,,,,,,,,,,,,,,,,,,
2019-11-07T12:34:21.123-08:00,2019-11-07T12:35:18.429-08:00,uuid:6c35633a-90c9-4bee-a51a-279589ceda53,Cyzstj8ob4Q9hUDhT6XhxKKODWx2 | faithr@skyfactory.com,,"Bloomsdale spinach (server: 21, id: 10)",Bloomsdale_spinach_Cyzstj8ob4Q9hUDhT6XhxKKODWx2,yes,supplmental,,6,hose,yes,hand_pulling hoeing,,,1,no,,,,,,,,no,,,,,,,,,,,,,,,,,,,,,,,,no,,,,,,,,,,,,,,,,,,,,,,,,,,,,,,,,,,,,,,,,,,,,,,,,,
2019-11-07T12:32:51.357-08:00,2019-11-07T12:33:32.809-08:00,uuid:ee7fed81-375f-4db1-80e8-d929b00ad1d8,Cyzstj8ob4Q9hUDhT6XhxKKODWx2 | faithr@skyfactory.com,,"Butter Crunch Lettuce (server: 21, id: 8)",Butter_Crunch_Lettuce_Cyzstj8ob4Q9hUDhT6XhxKKODWx2,yes,supplmental,,6,,no,,,,,no,,,,,,,,,,,,,,,,,,,,,,,,,,,,,,,,no,,,,,,,,,,,,,,,,,,,,,,,,,,,,,,,,,,,,,,,,,,,,,,,,,
2019-12-10T14:55:36.121-08:00,2019-12-11T09:43:11.832-08:00,uuid:aeaa9428-cbc9-460d-89a4-0ea755827ccf,Cyzstj8ob4Q9hUDhT6XhxKKODWx2 | faithr@skyfactory.com,,,2019-06-11_Beds_E9-E16_Cherry_tomato_Cyzstj8ob4Q9hUDhT6XhxKKODWx2,yes,supplmental,,4,drip_surface,yes,hand_pulling,,,2,yes,straw_hay,,3,no,,,,no,,,,,,,,,,,,,,,,,,,,,,,,no,,,,,,,,,,,,,,,,,,,,,,,,,,,,,,,,,,,,,,,,,,,,,,,,,
2019-12-11T09:46:02.807-08:00,2019-12-11T09:47:56.012-08:00,uuid:80395fe9-b970-4755-8123-96c8500a5a27,Cyzstj8ob4Q9hUDhT6XhxKKODWx2 | faithr@skyfactory.com,,"Cherry Tomato (server: 21, id: 3)",Cherry_Tomato_Cyzstj8ob4Q9hUDhT6XhxKKODWx2,yes,supplmental,,4,drip_surface,yes,hand_pulling,,,2,yes,straw_hay,,3,no,,,,no,,,,,,,,,,,,,,,,,,,,,,,,no,,,,,,,,,,,,,,,,,,,,,,,,,,,,,,,,,,,,,,,,,,,,,,,,,
2019-12-11T09:48:01.672-08:00,2019-12-11T09:49:20.975-08:00,uuid:edaa1772-7f73-4597-a351-ea358ecd203a,Cyzstj8ob4Q9hUDhT6XhxKKODWx2 | faithr@skyfactory.com,,"Cherry Tomato (server: 21, id: 3)",Cherry_Tomato_Cyzstj8ob4Q9hUDhT6XhxKKODWx2,yes,supplmental,,4,drip_surface,yes,hand_pulling,,,2,yes,straw_hay,,3,no,,,,no,,,,,,,,,,,,,,,,,,,,,,,,no,,,,,,,,,,,,,,,,,,,,,,,,,,,,,,,,,,,,,,,,,,,,,,,,,
2019-08-21T14:15:30.829-07:00,2019-08-21T14:20:11.177-07:00,uuid:895fe7ff-69cc-4d39-8dc3-bde15253891d,Cyzstj8ob4Q9hUDhT6XhxKKODWx2 | faithr@skyfactory.com,,"2019-05-07 West Garden Kale (server: 21, id: 2)",2019-05-07_West_Garden_Kale_Cyzstj8ob4Q9hUDhT6XhxKKODWx2,yes,supplmental,,2,surface_basin,no,,,,,no,,,,,,,,yes,inoculant,micro5000,tainio technologies,once,,yes,biostimulants,molasses,,once,,yes,foliar_sprays,,homemade,once,K Ca Mn Mo Co Fe Zn,no,,,,,,no,,,,,,,,,,,,,,,,,,,,,,,,,,,,,,,,,,,,,,,,,,,,,,,,,
2019-08-21T14:10:06.364-07:00,2019-08-21T14:15:09.945-07:00,uuid:7e906bdd-6f75-47b5-825d-8a8578edbdc3,Cyzstj8ob4Q9hUDhT6XhxKKODWx2 | faithr@skyfactory.com,,"2019-04-30 West Garden Spinach (server: 21, id: 1)",2019-04-30_West_Garden_Spinach_Cyzstj8ob4Q9hUDhT6XhxKKODWx2,yes,supplmental,,2,,no,,,,,no,,,,,,,,yes,foliar_sprays,,homemade,once,Ca Mn Mo Co Fe K,yes,biostimulants,molasses,,once,,yes,inoculant,micro5000,tainio technologies,once,,no,,,,,,no,,,,,,,,,,,,,,,,,,,,,,,,,,,,,,,,,,,,,,,,,,,,,,,,,
2019-12-11T12:49:13.199-06:00,2019-12-11T12:49:44.385-06:00,uuid:94255106-e76e-4629-a337-e543f06e254a,6Uw7tlao7Kf8ZpmeqPqZl0UFnNQ2 | connect@wovenrootsfarm.com,,Fall Lettuce,Fall_Lettuce_6Uw7tlao7Kf8ZpmeqPqZl0UFnNQ2,no,,,,,yes,hoeing,,,1,no,,,,,,,,no,,,,,,,,,,,,,,,,,,,,,,,,no,,,,,,,,,,,,,,,,,,,,,,,,,,,,,,,,,,,,,,,,,,,,,,,,,
2019-12-11T12:49:59.778-06:00,2019-12-11T12:50:35.837-06:00,uuid:935eef0c-6311-477d-bcb0-ef407d422ffc,6Uw7tlao7Kf8ZpmeqPqZl0UFnNQ2 | connect@wovenrootsfarm.com,,Fall Kale,Fall_Kale_6Uw7tlao7Kf8ZpmeqPqZl0UFnNQ2,no,,,,,yes,hoeing,,,2,no,,,,,,,,no,,,,,,,,,,,,,,,,,,,,,,,,no,,,,,,,,,,,,,,,,,,,,,,,,,,,,,,,,,,,,,,,,,,,,,,,,,
2019-12-11T12:16:24.566-06:00,2019-12-11T12:18:06.111-06:00,uuid:aef24e77-e707-411c-9313-ad1d2678240b,6Uw7tlao7Kf8ZpmeqPqZl0UFnNQ2 | connect@wovenrootsfarm.com,,Grapes,Grapes_6Uw7tlao7Kf8ZpmeqPqZl0UFnNQ2,no,,,,,no,,,,,yes,wood_chips,,2,no,,,,no,,,,,,,,,,,,,,,,,,,,,,,,no,,,,,,,,,,,,,,,,,,,,,,,,,,,,,,,,,,,,,,,,,,,,,,,,,
2019-12-11T12:18:42.000-06:00,2019-12-11T12:19:20.541-06:00,uuid:481ac3d8-e8e0-4e81-be23-913196fa4c5d,6Uw7tlao7Kf8ZpmeqPqZl0UFnNQ2 | connect@wovenrootsfarm.com,,Spring Kale,Spring_Kale_6Uw7tlao7Kf8ZpmeqPqZl0UFnNQ2,no,,,,,yes,hoeing,,,2,no,,,,,,,,no,,,,,,,,,,,,,,,,,,,,,,,,no,,,,,,,,,,,,,,,,,,,,,,,,,,,,,,,,,,,,,,,,,,,,,,,,,
2019-12-11T12:40:57.931-06:00,2019-12-11T12:41:51.492-06:00,uuid:b41eb9d1-5fc3-4417-8f6d-53cdc1e57ff4,6Uw7tlao7Kf8ZpmeqPqZl0UFnNQ2 | connect@wovenrootsfarm.com,,Spring Carrots,Spring_Carrots_6Uw7tlao7Kf8ZpmeqPqZl0UFnNQ2,no,,,,,yes,hoeing hand_pulling flaming,,,3,no,,,,,,,,no,,,,,,,,,,,,,,,,,,,,,,,,no,,,,,,,,,,,,,,,,,,,,,,,,,,,,,,,,,,,,,,,,,,,,,,,,,
2019-12-11T12:47:01.026-06:00,2019-12-11T12:47:51.681-06:00,uuid:2b184c40-2b74-40c1-b623-b238f3a09a87,6Uw7tlao7Kf8ZpmeqPqZl0UFnNQ2 | connect@wovenrootsfarm.com,,Spring Lettuce,Spring_Lettuce_6Uw7tlao7Kf8ZpmeqPqZl0UFnNQ2,no,,,,,yes,hoeing,,,1,no,,,,,,,,no,,,,,,,,,,,,,,,,,,,,,,,,no,,,,,,,,,,,,,,,,,,,,,,,,,,,,,,,,,,,,,,,,,,,,,,,,,
2019-12-11T12:48:22.271-06:00,2019-12-11T12:49:01.249-06:00,uuid:0ba2f8b1-fc97-4527-86ae-a5197362bd0f,6Uw7tlao7Kf8ZpmeqPqZl0UFnNQ2 | connect@wovenrootsfarm.com,,Spring Spinach,Spring_Spinach_6Uw7tlao7Kf8ZpmeqPqZl0UFnNQ2,no,,,,,yes,hoeing hand_pulling flaming,,,3,no,,,,,,,,no,,,,,,,,,,,,,,,,,,,,,,,,no,,,,,,,,,,,,,,,,,,,,,,,,,,,,,,,,,,,,,,,,,,,,,,,,,
2019-11-04T08:35:38.247-05:00,2019-11-04T15:21:02.496-05:00,uuid:80be6fa4-46bf-4979-9678-5795268152d4,9EKN1JCFaNfeinOHPZZaD3djg4n2 | Jenny & Chris Jackson,,kale,kale_9EKN1JCFaNfeinOHPZZaD3djg4n2,yes,supplmental,,8,,no,,,,,no,,,,,,,,no,,,,,,,,,,,,,,,,,,,,,,,,yes,damage,hand_removal biological_control,,3,,aphid,aphid,,,,,,,,,,,,,,,,,,,,,,,,,,,,,,,,,,,,,,,,,,
2019-12-10T21:40:23.357-05:00,2019-12-10T21:47:42.274-05:00,uuid:57b848ca-2e64-4412-936b-7c49cd826b87,9EKN1JCFaNfeinOHPZZaD3djg4n2 | Jenny & Chris Jackson,,"2019-08-08 Lettuce Lettuce (server: 29, id: 3)",2019-08-08_Lettuce_Lettuce_9EKN1JCFaNfeinOHPZZaD3djg4n2,yes,supplmental,,15,,no,,,,,yes,plastic,,,no,,,,yes,org_fertilizer,all_purpose,nature safe 9-0-9,once,N K Ca,yes,org_fertilizer,boron,,once,B,no,,,,,,,,,,,,,,,,,,,,,,,,,,,,,,,,,,,,,,,,,,,,,,,,,,,,,,,,,,,,,
2019-11-03T19:07:37.379-05:00,2019-11-03T19:08:49.639-05:00,uuid:5dc48fee-139d-4530-8d3f-dde4a4b2c9d7,JvZKOiZeRHbU2qAtIt1yLGqhxU02,,lettuce 2,lettuce_2_JvZKOiZeRHbU2qAtIt1yLGqhxU02,yes,weekly_scheduled,7,,sprinkler_solid_above,no,,,,,no,,,,,,,,no,,,,,,,,,,,,,,,,,,,,,,,,no,,,,,,,,,,,,,,,,,,,,,,,,,,,,,,,,,,,,,,,,,,,,,,,,,
2019-11-03T18:33:37.349-05:00,2019-11-03T18:34:45.983-05:00,uuid:f311dbad-6109-413d-859f-b0b38069cce0,JvZKOiZeRHbU2qAtIt1yLGqhxU02,,lettuce 1,lettuce_1_JvZKOiZeRHbU2qAtIt1yLGqhxU02,yes,supplmental,,12,hose,no,,,,,yes,straw_hay,,1,no,,,,no,,,,,,,,,,,,,,,,,,,,,,,,no,,,,,,,,,,,,,,,,,,,,,,,,,,,,,,,,,,,,,,,,,,,,,,,,,
2019-10-27T08:27:13.181-04:00,2019-11-03T19:11:25.412-05:00,uuid:29c4a208-02e3-4d23-810f-57e57e329b1c,JvZKOiZeRHbU2qAtIt1yLGqhxU02,,kale 1,kale_1_JvZKOiZeRHbU2qAtIt1yLGqhxU02,yes,supplmental,,12,hose,no,,,,,yes,straw_hay,,2,no,,,,no,,,,,,,,,,,,,,,,,,,,,,,,no,,,,,,,,,,,,,,,,,,,,,,,,,,,,,,,,,,,,,,,,,,,,,,,,,
2019-11-03T19:09:01.981-05:00,2019-11-03T19:09:49.956-05:00,uuid:b3c50ee0-ffe1-4429-bb5f-97a8e77396d0,JvZKOiZeRHbU2qAtIt1yLGqhxU02,,kale 2,kale_2_JvZKOiZeRHbU2qAtIt1yLGqhxU02,yes,weekly_scheduled,7,,sprinkler_solid_above,no,,,,,no,,,,,,,,no,,,,,,,,,,,,,,,,,,,,,,,,no,,,,,,,,,,,,,,,,,,,,,,,,,,,,,,,,,,,,,,,,,,,,,,,,,
2019-08-21T15:41:11.722-04:00,2019-08-21T15:46:06.204-04:00,uuid:7a77294f-c88b-49e7-bf27-950edf9f784c,JvZKOiZeRHbU2qAtIt1yLGqhxU02,,cherry tomatoes,cherry_tomatoes_JvZKOiZeRHbU2qAtIt1yLGqhxU02,no,,,,,yes,hand_pulling,,,2,yes,straw_hay,,6,no,,,,,,,,,,,,,,,,,,,,,,,,,,,,yes,observed,compost_tea,,6,aphids; blight,,,,,,,,,,,,,,,,,,,,,,,,,,,,,,,,,,,,,,,,,,,,
2019-12-19T21:20:32.155-05:00,2019-12-19T21:24:03.042-05:00,uuid:c2f598d3-7a97-4c49-8a9c-377585974dcc,uD6GKGq1aPbEqlkLNSKs91fsvmh2 | hh@safecommail.com,,"2019 Field 3 Cherry tomatoes (server: 22, id: 4)",2019_Field_3_Cherry_tomatoes_uD6GKGq1aPbEqlkLNSKs91fsvmh2,no,,,,,yes,hand_pulling hoeing,,,8,yes,straw_hay,,3,no,,,,no,,,,,,,,,,,,,,,,,,,,,,,,no,,,,,,,,,,,,,,,,,,,,,,,,,,,,,,,,,,,,,,,,,,,,,,,,,
2019-12-16T13:33:57.787-05:00,2019-12-16T13:36:48.523-05:00,uuid:4f9106e7-e64b-4c74-a390-d2a356eb3748,xlRUwWWhCrM5h1qtgLysrXHqCt93 | Julie Rawson,,2019-05-10_Spring_Carrots-West_Field_Carrot_xlRUwWWhCrM5h1qtgLysrXHqCt93,fall spinach pond field,yes,weekly_scheduled,1,,drip_surface,yes,hand_pulling,,,2,no,,,,,,,,no,,,,,,,,,,,,,,,,,,,,,,,,no,2019-12-16T13:33:57.787-05:00,2019-12-16T13:36:48.523-05:00,uuid:4f9106e7-e64b-4c74-a390-d2a356eb3748,xlRUwWWhCrM5h1qtgLysrXHqCt93 | Julie Rawson,,fall spinach pond field,yes,weekly_scheduled,1,,drip_surface,yes,hand_pulling,,,2,no,,,,,,,,no,,,,,,,,,,,,,,,,,,,,,,,,no
2019-10-08T17:29:33.040-04:00,2019-10-08T17:31:47.688-04:00,uuid:f4678021-ef24-4d0e-b3b3-c85e8cfec5b5,SmNV8mDQIpSZuDjKt6y7h62IWTM2 | Laura Davis,,"East St Carrots (server: 59, id: 6)",East_St_Carrots_SmNV8mDQIpSZuDjKt6y7h62IWTM2,yes,supplmental,,6,surface_basin,yes,hoeing,,,3,no,,,,,,,,no,,,,,,,,,,,,,,,,,,,,,,,,no,,,,,,,,,,,,,,,,,,,,,,,,,,,,,,,,,,,,,,,,,,,,,,,,,
2019-10-22T23:21:10.423-04:00,2019-10-22T23:26:14.589-04:00,uuid:168bde56-f0ed-4234-8c6d-ce24056276f3,sw90m7ScAkTQr0yu2oXp5k29mVu2 | mike@knowyouroots.com,,"2019-07-10 HF4 Carrot (server: 42, id: 12)",2019-07-10_HF4_Carrot_sw90m7ScAkTQr0yu2oXp5k29mVu2,no,,,,,no,,,,,no,,,,,,,,yes,org_fertilizer,chicken_manure,,once,N K P,no,,,,,,no,,,,,,,,,,,,no,,,,,,,,,,,,,,,,,,,,,,,,,,,,,,,,,,,,,,,,,,,,,,,,,
2020-01-03T15:25:22.217-05:00,2020-01-03T15:30:05.256-05:00,uuid:f17d71f8-3b75-4d63-aef5-d2fc3655ed80,DUC5xoDEe5UnVYLyDXWl6rqtjGE3 | Shawn Grenier,,"2019-05-27 Garden C Cherry tomato (server: 54, id: 6)",2019-05-27_Garden_C_Cherry_tomato_DUC5xoDEe5UnVYLyDXWl6rqtjGE3,yes,weekly_scheduled,7,,drip_surface,no,,,,,no,,,,,,,,no,,,,,,,,,,,,,,,,,,,,,,,,yes,damage,biological_control,,1,tomato_hornworm,,,,,,,,,,,,,,,,,,,,,,,,,,,,,,,,,,,,,,,,,,,,
2019-08-14T09:28:58.083-05:00,2019-08-14T09:31:16.124-05:00,uuid:32279cb9-5c97-43dd-a124-2c70dfd7b695,DpA6MQAaBrO3KwhkNqemyWr0agr1 | pjconnolly7@gmail.com,,"2019-06-01 Eagle Heights Garden Plot Cherry tomato (server: 46, id: 5)",2019-06-01_Eagle_Heights_Garden_Plot_Cherry_tomato_DpA6MQAaBrO3KwhkNqemyWr0agr1,yes,supplmental,,7,hose,yes,hand_pulling,,,7,yes,other,laid down pulled weeds around individual plants,,no,,,,no,,,,,,,,,,,,,,,,,,,,,,,,no,,,,,,,,,,,,,,,,,,,,,,,,,,,,,,,,,,,,,,,,,,,,,,,,,
2019-08-14T09:26:58.749-05:00,2019-08-14T09:28:42.375-05:00,uuid:06c61914-4bfa-44b1-a271-487c864975ba,DpA6MQAaBrO3KwhkNqemyWr0agr1 | pjconnolly7@gmail.com,,"2019-05-11 Eagle Heights Garden Plot Carrot (server: 46, id: 1)",2019-05-11_Eagle_Heights_Garden_Plot_Carrot_DpA6MQAaBrO3KwhkNqemyWr0agr1,yes,supplmental,,7,hose,yes,hand_pulling,,,7,no,,,,,,,,no,,,,,,,,,,,,,,,,,,,,,,,,no,,,,,,,,,,,,,,,,,,,,,,,,,,,,,,,,,,,,,,,,,,,,,,,,,
2019-08-14T09:31:33.463-05:00,2019-08-14T09:32:14.362-05:00,uuid:95d51ffb-fe46-49a4-bb5d-4877cc458790,DpA6MQAaBrO3KwhkNqemyWr0agr1 | pjconnolly7@gmail.com,,"2019-06-01 Eagle Heights Garden Plot Kale (server: 46, id: 3)",2019-06-01_Eagle_Heights_Garden_Plot_Kale_DpA6MQAaBrO3KwhkNqemyWr0agr1,yes,supplmental,,7,hose,yes,hand_pulling,,,7,yes,other,laid down pulled weeds around individual plants,,no,,,,no,,,,,,,,,,,,,,,,,,,,,,,,no,,,,,,,,,,,,,,,,,,,,,,,,,,,,,,,,,,,,,,,,,,,,,,,,,
2020-01-28T13:07:52.262-05:00,2020-02-21T07:43:03.441-05:00,uuid:d937c418-0943-402e-b39a-006c38e32cb1,VRj04SLHO6gtOU2v9uLpul4H0q83 | Rachel Klein,,"2019-09-10 Field 2 Lettuce TILL (server: 24, id: 4)",2019-09-10_Field_2_Lettuce_TILL_VRj04SLHO6gtOU2v9uLpul4H0q83,yes,weekly_scheduled,5,,drip_subsurface,yes,hoeing,,,1,no,,,,,,,,no,,,,,,,,,,,,,,,,,,,,,,,,no,,,,,,,,,,,,,,,,,,,,,,,,,,,,,,,,,,,,,,,,,,,,,,,,,
2019-08-20T07:48:54.031-04:00,2019-08-20T07:55:30.883-04:00,uuid:9d4a58b2-aece-484d-83d1-db71fc040be9,VRj04SLHO6gtOU2v9uLpul4H0q83 | Rachel Klein,,"2019 Field 1 Cherry tomato NO TILL (server: 24, id: 2)",2019_Field_1_Cherry_tomato_NO_TILL_VRj04SLHO6gtOU2v9uLpul4H0q83,yes,weekly_scheduled,5,,drip_surface,no,,,,,yes,other,crimped rye/clover,3,no,,,,no,,,,,,,,,,,,,,,,,,,,,,,,yes,observed,biological_control,3,2,leaf footed bug,,,,,,,,,,,,,,,,,,,,,,,,,,,,,,,,,,,,,,,,,,,,
2019-12-12T10:28:35.144-05:00,2019-12-12T10:29:04.463-05:00,uuid:a1247532-a6cb-4a1c-8f6a-751bf1bfceaa,QoVylNrwVQYFb0HABBUGuNWMkeI2 | oursci llc,,"2019-04-03 Raised beds Kale (server: 221, id: 2)",2019-04-03_Raised_beds_Kale_8qO5sAQc8efgug4J8MfGZQKubYe2,yes,weekly_scheduled,7,,drip_surface,yes,hand_pulling,,,,no,,,,,,,,no,,,,,,,,,,,,,,,,,,,,,,,,no,,,,,,,,,,,,,,,,,,,,,,,,,,,,,,,,,,,,,,,,,,,,,,,,,
2019-12-12T10:26:43.148-05:00,2019-12-12T10:28:15.909-05:00,uuid:d8214113-6566-493d-bef4-2ee7e4ab0801,QoVylNrwVQYFb0HABBUGuNWMkeI2 | oursci llc,,"2019-04-13 Raised beds Lettuce (server: 221, id: 3)",2019-04-13_Raised_beds_Lettuce_8qO5sAQc8efgug4J8MfGZQKubYe2,yes,weekly_scheduled,7,,drip_surface,yes,hand_pulling,,,,no,,,,,,,,no,,,,,,,,,,,,,,,,,,,,,,,,no,,,,,,,,,,,,,,,,,,,,,,,,,,,,,,,,,,,,,,,,,,,,,,,,,
2019-09-11T13:22:24.049-04:00,2019-09-11T13:27:06.260-04:00,uuid:2c34937b-f1e8-4c83-b595-6b9d5967d66f,T0fuy5pV1kdRsmMEz5uawZIlwD32 | sbfaust@bellsouth.net,,"2019-05-15 Field 1 East bed 3 Cherry tomato (server: 17, id: 6)",2019-05-15_Field_1_East_bed_3_Cherry_tomato_T0fuy5pV1kdRsmMEz5uawZIlwD32,yes,weekly_scheduled,7,,drip_surface,yes,hand_pulling mowing,,,4,yes,other,OMRI approved compost from EarthFarm.,2,no,,,,no,,,,,,,,,,,,,,,,,,,,,,,,no,,,,,,,,,,,,,,,,,,,,,,,,,,,,,,,,,,,,,,,,,,,,,,,,,
2019-08-15T16:43:42.523-04:00,2019-08-15T16:54:25.335-04:00,uuid:d7a1f7e7-f897-4aa3-9f8d-30553d4d5b21,T0fuy5pV1kdRsmMEz5uawZIlwD32 | sbfaust@bellsouth.net,,"2019 Field 2 North bed 3 Carrot (server: 17, id: 4)",2019_Field_2_North_bed_3_Carrot_T0fuy5pV1kdRsmMEz5uawZIlwD32,yes,weekly_scheduled,7,,drip_surface,yes,hand_pulling,,,8,yes,other,Organic compost from Earthfarm.,2,no,,,,yes,compost_tea,compost,homemade,twice,unknown,no,,,,,,no,,,,,,,,,,,,no,,,,,,,,,,,,,,,,,,,,,,,,,,,,,,,,,,,,,,,,,,,,,,,,,
2019-12-20T09:11:25.141-05:00,2019-12-20T09:13:30.565-05:00,uuid:7b3bd1e7-1a03-4d71-81dc-f30c21615748,epxUkYe7WPQV95pFT7tHNZ5H3673 | Taylor l,,"2019-07-09 veggie field Kale (server: 33, id: 3)",2019-07-09_veggie_field_Kale_epxUkYe7WPQV95pFT7tHNZ5H3673,no,,,,,yes,hoeing,,,4,no,,,,,,,,no,,,,,,,,,,,,,,,,,,,,,,,,no,,,,,,,,,,,,,,,,,,,,,,,,,,,,,,,,,,,,,,,,,,,,,,,,,
2019-12-10T11:54:00.026-08:00,2019-12-10T11:54:42.875-08:00,uuid:bb3ae86f-305c-47c5-9134-d1d218c12cdc,DACSpUBu1zVXYgalObbaZQnQCGN2 | tom@turnerfarm.org,,jump field kale,jump_field_kale_DACSpUBu1zVXYgalObbaZQnQCGN2,no,,,,,yes,cultivation,,,2,no,,,,,,,,no,,,,,,,,,,,,,,,,,,,,,,,,no,,,,,,,,,,,,,,,,,,,,,,,,,,,,,,,,,,,,,,,,,,,,,,,,,
2019-12-10T11:52:36.152-08:00,2019-12-10T11:53:42.198-08:00,uuid:0f25ae0e-264b-49a5-8b8c-a4b494693184,DACSpUBu1zVXYgalObbaZQnQCGN2 | tom@turnerfarm.org,,vegetable garden east lettuce,vegetable_garden_east_lettuce_DACSpUBu1zVXYgalObbaZQnQCGN2,no,,,,,yes,hand_pulling hoeing,,,3,no,,,,,,,,no,,,,,,,,,,,,,,,,,,,,,,,,no,,,,,,,,,,,,,,,,,,,,,,,,,,,,,,,,,,,,,,,,,,,,,,,,,
2019-12-10T11:29:35.307-08:00,2019-12-10T11:31:07.126-08:00,uuid:4d720d5f-a8df-4742-bb41-9c83cf245186,DACSpUBu1zVXYgalObbaZQnQCGN2 | tom@turnerfarm.org,,"2019-05-07 Vegetable Garden West Cherry tomato (server: 93, id: 1)",2019-05-07_Vegetable_Garden_West_Cherry_tomato_DACSpUBu1zVXYgalObbaZQnQCGN2,no,,,,,yes,hand_pulling,,,3,yes,leaves,,2,yes,straw_hay,,2,no,,,,,,,,,,,,,,,,,,,,,,,,no,,,,,,,,,,,,,,,,,,,,,,,,,,,,,,,,,,,,,,,,,,,,,,,,,
2019-08-14T09:14:16.474-07:00,2019-08-14T09:25:27.197-07:00,uuid:6f6ddd57-e444-4d2b-9f76-c49ff705c09b,DACSpUBu1zVXYgalObbaZQnQCGN2 | tom@turnerfarm.org,,west tunnel,west_tunnel_cherry_tomato_DACSpUBu1zVXYgalObbaZQnQCGN2,yes,weekly_scheduled,1,,drip_surface,yes,hand_pulling hoeing,,,3,no,,,,,,,,no,,,,,,,,,,,,,,,,,,,,,,,,yes,damage,biological_control,2,2,botrytis_blight,armyworm,downy_mildew,,,,,,,,,,,,,,,,,,,,,,,,,,,,,,,,,,,,,,,,,,
